5 2 4 7 6 15 14 13 11 10 
5 2 5 17 13 10 1 27 7 15 
5 2 6 40 23 30 12 17 51 46 
5 2 7 112 18 123 127 14 76 66 
5 2 8 90 211 232 188 221 183 73 
5 3 4 11 0 6 9 7 3 10 2 
5 3 5 26 14 31 30 1 4 18 23 
5 3 6 12 59 61 52 26 37 33 29 
5 3 7 40 91 69 59 47 123 27 45 
5 3 8 132 149 85 194 251 30 9 122 
6 2 4 0 13 10 3 7 11 14 1 
6 2 5 30 19 27 21 8 1 31 10 
6 2 6 36 44 35 3 29 56 0 21 
6 2 7 2 101 3 10 5 61 31 32 
6 2 8 0 135 246 217 70 51 194 110 
6 3 4 0 3 11 8 7 14 15 13 12 
6 3 5 6 2 14 11 21 4 31 22 17 
6 3 6 11 21 41 7 54 45 2 4 37 
6 3 7 116 21 60 103 38 33 120 65 8 
6 3 8 27 250 255 230 48 14 161 245 132 
6 4 4 11 3 13 7 1 6 0 5 9 2 
6 4 5 15 16 13 2 22 3 14 12 17 7 
6 4 6 11 21 41 7 54 45 2 4 37 61 
6 4 7 52 76 7 69 17 49 107 77 50 115 
6 4 8 221 52 113 5 223 101 10 200 147 54 
7 2 4 3 2 0 5 9 13 15 11 10 
7 2 5 28 25 20 16 27 24 18 11 6 
7 2 6 19 62 61 59 56 55 46 41 40 
7 2 7 64 110 62 33 49 83 2 8 117 
7 2 8 84 162 222 136 204 140 160 77 193 
7 3 4 10 15 11 6 4 7 9 0 3 13 
7 3 5 29 25 14 13 24 19 9 16 3 4 
7 3 6 40 35 8 27 22 46 60 13 29 33 
7 3 7 76 54 59 13 102 35 42 28 95 104 
7 3 8 150 176 133 141 79 84 226 34 219 81 
7 4 4 9 14 3 10 11 7 2 8 13 1 12 
7 4 5 2 8 17 5 29 28 0 22 26 21 27 
7 4 6 31 43 26 36 37 14 32 27 21 28 1 
7 4 7 118 58 56 100 123 26 55 110 76 80 46 
7 4 8 255 254 250 249 246 239 238 234 230 208 174 
8 2 4 6 15 7 11 0 10 1 4 2 5 
8 2 5 1 18 2 5 7 9 3 21 19 28 
8 2 6 31 56 26 4 33 23 45 11 36 62 
8 2 7 45 7 59 60 89 6 76 70 81 67 
8 2 8 255 90 51 191 70 59 0 198 92 202 
8 3 4 14 10 5 2 1 7 0 11 9 12 15 
8 3 5 19 27 26 30 31 29 28 25 24 22 21 
8 3 6 58 55 29 20 8 31 5 37 13 23 45 
8 3 7 52 105 124 118 116 88 83 69 65 64 62 
8 3 8 246 179 116 121 247 139 67 203 93 115 20 
8 4 4 8 5 9 2 0 4 13 12 15 6 1 3 
8 4 5 8 26 29 21 25 3 24 28 30 19 9 6 
8 4 6 39 5 48 37 43 32 27 38 58 19 7 17 
8 4 7 99 60 37 55 42 86 101 10 48 12 83 71 
8 4 8 109 122 78 106 210 83 221 173 205 87 240 157 
9 2 4 8 11 14 4 0 7 1 15 2 12 10 
9 2 5 19 2 31 0 4 27 1 21 11 13 3 
9 2 6 33 35 10 6 54 7 5 31 39 62 4 
9 2 7 111 122 43 97 19 126 120 38 86 53 11 
9 2 8 118 134 136 181 10 211 32 231 13 204 235 
9 3 4 1 5 8 11 4 13 10 3 0 2 15 14 
9 3 5 28 12 11 1 16 17 29 22 21 27 26 23 
9 3 6 9 38 48 55 61 25 52 31 30 18 45 34 
9 3 7 78 126 2 95 16 125 75 114 36 46 105 97 
9 3 8 35 106 132 119 244 8 92 126 50 165 215 87 
9 4 4 2 1 12 10 3 15 7 5 13 4 11 6 14 
9 4 5 19 9 31 21 2 16 12 18 4 7 13 11 3 
9 4 6 29 47 1 37 6 58 22 17 48 30 11 2 50 
9 4 7 18 67 66 60 71 86 105 55 123 12 53 127 77 
9 4 8 100 106 199 171 18 187 6 241 89 166 137 93 215 
10 2 4 2 3 9 14 1 0 10 7 6 11 12 4 
10 2 5 15 28 7 9 1 5 10 21 26 12 2 6 
10 2 6 22 39 16 14 40 36 33 37 30 17 38 7 
10 2 7 73 119 32 17 111 47 62 2 30 81 86 18 
10 2 8 186 122 181 90 102 192 48 209 137 210 65 213 
10 3 4 7 3 6 0 5 4 15 8 12 1 2 9 10 
10 3 5 13 18 20 19 16 27 4 0 1 7 31 17 26 
10 3 6 55 63 61 60 59 58 57 56 53 50 48 47 46 
10 3 7 124 79 58 69 123 76 47 73 46 97 3 20 77 
10 3 8 32 86 105 141 243 233 110 191 48 87 153 42 117 
10 4 4 0 10 12 15 5 3 7 9 8 11 4 6 2 14 
10 4 5 6 5 14 17 27 31 29 28 26 25 24 22 21 15 
10 4 6 53 50 47 6 60 12 0 48 29 45 55 23 40 25 
10 4 7 1 120 27 31 94 67 101 83 8 80 17 73 108 5 
10 4 8 115 193 22 88 78 233 145 98 82 11 101 194 253 46 
10 5 4 9 10 3 7 15 4 11 1 2 0 13 12 6 8 5 
10 5 5 9 0 6 18 17 25 31 20 3 12 29 8 2 1 21 
10 5 6 36 13 42 7 37 11 59 25 23 61 38 28 32 17 43 
10 5 7 78 7 26 94 96 121 54 120 91 81 23 93 74 70 0 
10 5 8 211 56 246 145 183 106 232 103 226 0 12 102 180 228 130 
10 6 4 1 4 11 6 3 7 12 2 5 9 0 8 10 14 15 13 
10 6 5 12 30 3 4 23 10 26 19 17 16 27 1 21 6 14 29 
10 6 6 20 34 13 47 48 5 37 57 52 46 4 43 17 3 12 2 
10 6 7 58 19 85 4 5 127 103 38 122 52 40 84 34 54 51 112 
10 6 8 175 155 185 188 82 153 126 169 135 133 28 15 127 251 255 117 
