Using 256-bit vectorization


 ********* Start zerasure *********

Detecting Linux L2 Cache size...
Autoselect packetsize 32768
ZRaid6 K = 5, packetsize = 32768
Malloc... 2d 5 x 8
size is 104857600 Byte, 640 loops
Malloc... 2d 2 x 20971520
 !!! Encode cost 16336 us, init 0 us, total 16336 us, size = 104857600, speed = 6121.449559 MB/s
Malloc... 2d 5 x 20971520
Malloc... 2d 5 x 8
0 Lost :  data 3, data 0,
1 Lost :  data 3, data 1,
2 Lost :  data 4, parity 0,
3 Lost :  data 0, parity 0,
4 Lost :  data 0, parity 1,
5 Lost :  parity 0, data 0,
6 Lost :  data 4, data 1,
7 Lost :  data 4, data 1,
8 Lost :  data 2, data 1,
9 Lost :  data 0, parity 1,
10 Lost :  data 0, data 4,
11 Lost :  data 0, data 4,
12 Lost :  data 2, data 0,
13 Lost :  data 3, data 0,
14 Lost :  parity 0, data 3,
15 Lost :  parity 1, data 3,
16 Lost :  data 4, data 3,
17 Lost :  data 0, data 3,
18 Lost :  parity 1, data 3,
19 Lost :  data 4, parity 1,
20 Lost :  parity 0, data 2,
21 Lost :  data 4, parity 1,
22 Lost :  parity 0, data 3,
23 Lost :  data 1, data 3,
24 Lost :  parity 0, data 1,
25 Lost :  data 3, data 4,
26 Lost :  parity 1, data 4,
27 Lost :  parity 1, data 0,
28 Lost :  parity 0, data 0,
29 Lost :  data 3, data 1,
30 Lost :  parity 0, data 1,
31 Lost :  data 3, data 4,
32 Lost :  data 3, data 4,
33 Lost :  data 4, data 2,
34 Lost :  data 1, data 2,
35 Lost :  data 4, data 2,
36 Lost :  data 3, parity 0,
37 Lost :  data 1, data 3,
38 Lost :  data 3, parity 0,
39 Lost :  data 3, parity 1,
40 Lost :  data 3, data 4,
41 Lost :  data 4, parity 1,
42 Lost :  data 0, parity 1,
43 Lost :  data 0, data 4,
44 Lost :  data 1, data 4,
45 Lost :  parity 0, data 4,
46 Lost :  parity 1, data 0,
47 Lost :  data 1, parity 0,
48 Lost :  parity 1, data 4,
49 Lost :  data 2, data 3,
50 Lost :  data 2, data 0,
51 Lost :  parity 1, data 1,
52 Lost :  parity 1, data 2,
53 Lost :  parity 0, parity 1,
All parities, skip
53 Lost :  parity 0, data 4,
54 Lost :  parity 0, data 3,
55 Lost :  parity 1, data 1,
56 Lost :  parity 1, data 0,
57 Lost :  parity 1, data 0,
58 Lost :  parity 0, data 0,
59 Lost :  data 0, data 1,
60 Lost :  data 2, data 1,
61 Lost :  data 2, data 4,
62 Lost :  data 1, parity 1,
63 Lost :  parity 1, data 2,
64 Lost :  data 0, parity 1,
65 Lost :  data 4, parity 1,
66 Lost :  parity 0, parity 1,
All parities, skip
66 Lost :  data 2, data 0,
67 Lost :  data 0, parity 0,
68 Lost :  data 2, parity 0,
69 Lost :  parity 1, data 3,
70 Lost :  data 1, data 3,
71 Lost :  data 3, parity 0,
72 Lost :  data 1, parity 0,
73 Lost :  data 2, parity 1,
74 Lost :  data 2, parity 1,
75 Lost :  data 3, data 1,
76 Lost :  parity 0, data 3,
77 Lost :  data 1, parity 0,
78 Lost :  data 1, data 0,
79 Lost :  data 1, data 3,
80 Lost :  data 1, parity 0,
81 Lost :  parity 1, data 2,
82 Lost :  parity 1, parity 0,
All parities, skip
82 Lost :  data 4, parity 0,
83 Lost :  data 0, data 4,
84 Lost :  parity 1, data 3,
85 Lost :  data 4, data 3,
86 Lost :  data 4, parity 0,
87 Lost :  data 4, data 1,
88 Lost :  data 3, parity 1,
89 Lost :  data 3, parity 1,
90 Lost :  data 0, data 1,
91 Lost :  parity 1, data 4,
92 Lost :  data 1, parity 1,
93 Lost :  data 1, data 3,
94 Lost :  data 1, data 3,
95 Lost :  data 1, data 2,
96 Lost :  data 2, parity 0,
97 Lost :  parity 1, data 3,
98 Lost :  data 1, data 0,
99 Lost :  parity 1, data 4,
 !!! Decode cost 88247 us, init 0 us, total 88247 us, size = 104857600, speed = 1133.182998 MB/s


 *********  End zerasure **********

Using 256-bit vectorization


 ********* Start zerasure *********

Detecting Linux L2 Cache size...
Autoselect packetsize 16384
ZRaid6 K = 6, packetsize = 16384
Malloc... 2d 6 x 8
size is 104890368 Byte, 1067 loops
Malloc... 2d 2 x 17481728
 !!! Encode cost 15653 us, init 0 us, total 15653 us, size = 104890368, speed = 6390.548138 MB/s
Malloc... 2d 6 x 17481728
Malloc... 2d 6 x 8
0 Lost :  parity 0, data 5,
1 Lost :  data 0, data 2,
2 Lost :  data 1, data 4,
3 Lost :  data 1, data 4,
4 Lost :  data 0, data 2,
5 Lost :  parity 0, data 5,
6 Lost :  data 2, data 1,
7 Lost :  parity 1, data 3,
8 Lost :  data 4, parity 1,
9 Lost :  data 0, parity 1,
10 Lost :  data 3, data 2,
11 Lost :  data 4, data 3,
12 Lost :  data 0, parity 1,
13 Lost :  parity 0, parity 1,
All parities, skip
13 Lost :  data 3, data 1,
14 Lost :  data 4, data 1,
15 Lost :  parity 0, data 5,
16 Lost :  parity 0, data 0,
17 Lost :  data 4, data 1,
18 Lost :  data 5, data 1,
19 Lost :  data 2, data 1,
20 Lost :  data 1, parity 0,
21 Lost :  parity 1, data 0,
22 Lost :  data 2, parity 0,
23 Lost :  data 4, data 0,
24 Lost :  parity 1, data 2,
25 Lost :  parity 0, data 2,
26 Lost :  data 5, parity 1,
27 Lost :  data 0, data 3,
28 Lost :  parity 1, data 3,
29 Lost :  parity 0, data 3,
30 Lost :  data 4, data 1,
31 Lost :  data 2, data 1,
32 Lost :  parity 1, data 3,
33 Lost :  parity 1, data 3,
34 Lost :  parity 0, data 3,
35 Lost :  parity 1, parity 0,
All parities, skip
35 Lost :  parity 1, data 2,
36 Lost :  data 2, parity 0,
37 Lost :  data 5, data 0,
38 Lost :  data 0, data 3,
39 Lost :  data 1, data 0,
40 Lost :  parity 0, data 0,
41 Lost :  parity 1, data 1,
42 Lost :  data 0, parity 0,
43 Lost :  data 0, parity 0,
44 Lost :  data 1, parity 1,
45 Lost :  data 2, data 4,
46 Lost :  data 2, data 3,
47 Lost :  data 1, data 3,
48 Lost :  data 1, parity 1,
49 Lost :  data 5, data 4,
50 Lost :  parity 1, data 0,
51 Lost :  data 1, data 0,
52 Lost :  data 1, data 0,
53 Lost :  parity 1, parity 0,
All parities, skip
53 Lost :  parity 0, data 2,
54 Lost :  data 2, parity 0,
55 Lost :  data 5, parity 0,
56 Lost :  data 0, parity 0,
57 Lost :  parity 1, data 0,
58 Lost :  parity 0, data 1,
59 Lost :  data 5, data 4,
60 Lost :  data 4, data 2,
61 Lost :  data 4, data 2,
62 Lost :  data 0, parity 1,
63 Lost :  data 0, parity 1,
64 Lost :  data 3, data 1,
65 Lost :  data 2, data 4,
66 Lost :  data 1, parity 1,
67 Lost :  parity 0, data 3,
68 Lost :  parity 0, data 0,
69 Lost :  parity 0, data 1,
70 Lost :  parity 0, data 0,
71 Lost :  parity 0, data 4,
72 Lost :  parity 1, data 3,
73 Lost :  data 4, data 5,
74 Lost :  data 0, data 2,
75 Lost :  data 4, data 1,
76 Lost :  parity 1, data 5,
77 Lost :  data 3, data 1,
78 Lost :  data 2, data 1,
79 Lost :  data 2, parity 1,
80 Lost :  data 4, data 0,
81 Lost :  data 1, data 3,
82 Lost :  parity 1, data 1,
83 Lost :  data 1, parity 1,
84 Lost :  data 0, data 3,
85 Lost :  data 4, data 3,
86 Lost :  data 4, parity 0,
87 Lost :  data 2, data 5,
88 Lost :  parity 0, data 1,
89 Lost :  parity 1, parity 0,
All parities, skip
89 Lost :  data 1, data 2,
90 Lost :  data 1, data 2,
91 Lost :  data 1, data 5,
92 Lost :  data 4, data 2,
93 Lost :  data 5, data 2,
94 Lost :  data 2, data 5,
95 Lost :  data 2, data 0,
96 Lost :  data 3, data 0,
97 Lost :  data 0, data 2,
98 Lost :  data 0, data 1,
99 Lost :  data 3, parity 1,
 !!! Decode cost 88724 us, init 0 us, total 88724 us, size = 104890368, speed = 1127.442969 MB/s


 *********  End zerasure **********

Using 256-bit vectorization


 ********* Start zerasure *********

Detecting Linux L2 Cache size...
Autoselect packetsize 16384
ZRaid6 K = 7, packetsize = 16384
Malloc... 2d 7 x 8
size is 104939520 Byte, 915 loops
Malloc... 2d 2 x 14991360
 !!! Encode cost 14826 us, init 0 us, total 14826 us, size = 104939520, speed = 6750.177054 MB/s
Malloc... 2d 7 x 14991360
Malloc... 2d 7 x 8
0 Lost :  data 0, data 1,
1 Lost :  data 6, data 3,
2 Lost :  data 5, data 2,
3 Lost :  data 1, data 2,
4 Lost :  data 4, data 1,
5 Lost :  data 4, data 1,
6 Lost :  data 4, data 5,
7 Lost :  data 4, data 2,
8 Lost :  parity 0, data 3,
9 Lost :  data 1, data 4,
10 Lost :  parity 1, data 5,
11 Lost :  data 4, parity 0,
12 Lost :  data 4, data 5,
13 Lost :  parity 1, data 4,
14 Lost :  data 3, data 4,
15 Lost :  parity 0, data 0,
16 Lost :  data 6, data 5,
17 Lost :  data 0, data 6,
18 Lost :  data 6, data 0,
19 Lost :  data 5, data 4,
20 Lost :  parity 1, data 3,
21 Lost :  data 1, data 6,
22 Lost :  data 2, data 4,
23 Lost :  data 5, data 0,
24 Lost :  data 5, data 0,
25 Lost :  data 3, data 4,
26 Lost :  data 3, data 5,
27 Lost :  parity 1, data 0,
28 Lost :  data 3, data 2,
29 Lost :  data 3, data 1,
30 Lost :  data 6, parity 1,
31 Lost :  data 3, data 5,
32 Lost :  data 5, data 2,
33 Lost :  data 5, data 4,
34 Lost :  parity 0, data 0,
35 Lost :  parity 1, data 4,
36 Lost :  parity 1, data 5,
37 Lost :  parity 0, data 2,
38 Lost :  data 5, parity 0,
39 Lost :  data 4, data 1,
40 Lost :  data 2, data 4,
41 Lost :  data 0, data 4,
42 Lost :  data 5, data 4,
43 Lost :  data 4, data 5,
44 Lost :  data 4, data 0,
45 Lost :  data 2, data 4,
46 Lost :  data 2, data 6,
47 Lost :  parity 1, data 6,
48 Lost :  parity 0, data 6,
49 Lost :  data 4, parity 0,
50 Lost :  data 4, parity 1,
51 Lost :  data 2, data 1,
52 Lost :  parity 1, data 1,
53 Lost :  data 2, data 4,
54 Lost :  data 1, data 6,
55 Lost :  data 2, parity 1,
56 Lost :  data 4, parity 0,
57 Lost :  data 6, parity 1,
58 Lost :  data 6, data 1,
59 Lost :  data 1, data 5,
60 Lost :  data 3, data 4,
61 Lost :  parity 1, data 2,
62 Lost :  parity 1, data 3,
63 Lost :  data 6, data 4,
64 Lost :  data 6, data 0,
65 Lost :  data 4, data 1,
66 Lost :  data 0, data 5,
67 Lost :  data 0, parity 1,
68 Lost :  data 4, parity 0,
69 Lost :  data 5, parity 0,
70 Lost :  data 6, data 2,
71 Lost :  data 6, data 2,
72 Lost :  data 3, data 0,
73 Lost :  data 4, data 1,
74 Lost :  parity 0, data 3,
75 Lost :  data 3, data 0,
76 Lost :  data 2, data 1,
77 Lost :  data 5, data 4,
78 Lost :  data 1, data 3,
79 Lost :  data 5, parity 0,
80 Lost :  parity 1, parity 0,
All parities, skip
80 Lost :  data 1, data 4,
81 Lost :  data 2, data 5,
82 Lost :  data 2, data 3,
83 Lost :  data 1, parity 0,
84 Lost :  data 1, data 0,
85 Lost :  data 2, parity 1,
86 Lost :  parity 1, parity 0,
All parities, skip
86 Lost :  data 4, data 6,
87 Lost :  data 2, data 5,
88 Lost :  data 2, data 1,
89 Lost :  parity 0, data 1,
90 Lost :  data 0, data 5,
91 Lost :  data 2, data 6,
92 Lost :  data 4, data 2,
93 Lost :  data 0, parity 0,
94 Lost :  data 4, data 5,
95 Lost :  parity 0, data 5,
96 Lost :  data 3, parity 1,
97 Lost :  data 1, data 6,
98 Lost :  data 0, data 3,
99 Lost :  data 0, data 1,
 !!! Decode cost 91023 us, init 0 us, total 91023 us, size = 104939520, speed = 1099.481724 MB/s


 *********  End zerasure **********

Using 256-bit vectorization


 ********* Start zerasure *********

Detecting Linux L2 Cache size...
Autoselect packetsize 16384
ZRaid6 K = 8, packetsize = 16384
Malloc... 2d 8 x 8
size is 104857600 Byte, 800 loops
Malloc... 2d 2 x 13107200
 !!! Encode cost 13987 us, init 0 us, total 13987 us, size = 104857600, speed = 7149.495961 MB/s
Malloc... 2d 8 x 13107200
Malloc... 2d 8 x 8
0 Lost :  parity 1, data 7,
1 Lost :  data 4, data 2,
2 Lost :  data 7, data 2,
3 Lost :  data 5, parity 0,
4 Lost :  data 4, data 5,
5 Lost :  data 4, data 5,
6 Lost :  data 0, parity 0,
7 Lost :  parity 0, data 4,
8 Lost :  data 2, data 4,
9 Lost :  data 5, data 1,
10 Lost :  data 4, data 1,
11 Lost :  data 6, parity 0,
12 Lost :  data 1, parity 0,
13 Lost :  data 2, parity 0,
14 Lost :  data 1, data 6,
15 Lost :  parity 1, data 2,
16 Lost :  parity 0, data 1,
17 Lost :  parity 0, data 4,
18 Lost :  data 3, parity 1,
19 Lost :  data 5, parity 1,
20 Lost :  data 5, parity 1,
21 Lost :  data 6, parity 0,
22 Lost :  parity 0, data 1,
23 Lost :  data 1, parity 1,
24 Lost :  data 2, data 1,
25 Lost :  data 0, parity 1,
26 Lost :  data 3, data 0,
27 Lost :  data 3, data 0,
28 Lost :  parity 1, data 0,
29 Lost :  data 3, data 0,
30 Lost :  data 7, data 4,
31 Lost :  data 1, data 2,
32 Lost :  data 1, parity 0,
33 Lost :  data 2, data 0,
34 Lost :  data 7, parity 1,
35 Lost :  parity 1, data 4,
36 Lost :  data 3, data 6,
37 Lost :  data 0, data 1,
38 Lost :  data 3, data 2,
39 Lost :  data 2, data 7,
40 Lost :  data 5, data 2,
41 Lost :  data 1, data 7,
42 Lost :  data 1, data 6,
43 Lost :  data 6, data 0,
44 Lost :  data 3, data 4,
45 Lost :  data 5, data 7,
46 Lost :  parity 1, data 4,
47 Lost :  parity 1, parity 0,
All parities, skip
47 Lost :  data 1, data 3,
48 Lost :  data 1, data 6,
49 Lost :  data 5, data 1,
50 Lost :  data 4, data 0,
51 Lost :  data 6, data 2,
52 Lost :  data 5, data 2,
53 Lost :  data 7, parity 0,
54 Lost :  data 1, data 3,
55 Lost :  data 1, data 5,
56 Lost :  data 7, data 1,
57 Lost :  data 5, data 7,
58 Lost :  data 5, data 6,
59 Lost :  parity 0, data 0,
60 Lost :  data 1, data 6,
61 Lost :  parity 1, data 5,
62 Lost :  data 5, data 0,
63 Lost :  data 5, data 1,
64 Lost :  parity 1, data 5,
65 Lost :  data 7, data 6,
66 Lost :  data 3, data 4,
67 Lost :  data 0, parity 1,
68 Lost :  data 0, data 5,
69 Lost :  data 3, data 2,
70 Lost :  data 3, data 2,
71 Lost :  parity 1, parity 0,
All parities, skip
71 Lost :  data 5, parity 0,
72 Lost :  data 0, data 4,
73 Lost :  data 1, data 4,
74 Lost :  data 6, data 2,
75 Lost :  data 0, data 4,
76 Lost :  data 6, data 0,
77 Lost :  data 4, data 0,
78 Lost :  data 5, data 0,
79 Lost :  data 1, data 5,
80 Lost :  parity 1, data 3,
81 Lost :  data 0, data 1,
82 Lost :  parity 0, data 3,
83 Lost :  data 2, data 5,
84 Lost :  data 2, data 0,
85 Lost :  data 4, parity 0,
86 Lost :  data 3, data 5,
87 Lost :  data 6, data 7,
88 Lost :  data 6, data 7,
89 Lost :  data 6, data 7,
90 Lost :  data 0, data 5,
91 Lost :  parity 1, data 7,
92 Lost :  data 2, data 4,
93 Lost :  parity 1, data 6,
94 Lost :  data 5, data 6,
95 Lost :  data 1, data 0,
96 Lost :  data 1, parity 0,
97 Lost :  data 6, parity 0,
98 Lost :  parity 1, data 5,
99 Lost :  data 3, parity 1,
 !!! Decode cost 90878 us, init 0 us, total 90878 us, size = 104857600, speed = 1100.376329 MB/s


 *********  End zerasure **********

Using 256-bit vectorization


 ********* Start zerasure *********

Detecting Linux L2 Cache size...
Autoselect packetsize 16384
ZRaid6 K = 9, packetsize = 16384
Malloc... 2d 9 x 8
size is 104988672 Byte, 712 loops
Malloc... 2d 2 x 11665408
 !!! Encode cost 14197 us, init 0 us, total 14197 us, size = 104988672, speed = 7052.546313 MB/s
Malloc... 2d 9 x 11665408
Malloc... 2d 9 x 8
0 Lost :  data 8, data 2,
1 Lost :  parity 0, data 8,
2 Lost :  parity 0, data 4,
3 Lost :  parity 0, data 7,
4 Lost :  data 1, data 7,
5 Lost :  data 8, data 7,
6 Lost :  data 8, data 7,
7 Lost :  data 3, data 2,
8 Lost :  data 2, data 0,
9 Lost :  data 4, data 6,
10 Lost :  parity 1, data 4,
11 Lost :  parity 0, data 2,
12 Lost :  data 3, parity 0,
13 Lost :  data 3, data 8,
14 Lost :  data 2, data 5,
15 Lost :  data 4, data 2,
16 Lost :  data 5, data 2,
17 Lost :  parity 0, data 0,
18 Lost :  data 2, data 8,
19 Lost :  data 0, parity 0,
20 Lost :  data 4, data 6,
21 Lost :  parity 0, data 4,
22 Lost :  data 4, data 6,
23 Lost :  parity 0, parity 1,
All parities, skip
23 Lost :  data 1, parity 1,
24 Lost :  data 4, data 2,
25 Lost :  data 5, data 4,
26 Lost :  parity 1, data 7,
27 Lost :  data 0, data 3,
28 Lost :  data 6, data 3,
29 Lost :  data 6, data 4,
30 Lost :  data 5, data 4,
31 Lost :  data 5, data 4,
32 Lost :  parity 0, data 2,
33 Lost :  parity 0, data 6,
34 Lost :  data 2, data 1,
35 Lost :  data 1, data 3,
36 Lost :  data 1, data 7,
37 Lost :  data 5, parity 1,
38 Lost :  data 6, parity 1,
39 Lost :  data 4, data 6,
40 Lost :  data 0, data 3,
41 Lost :  parity 1, data 3,
42 Lost :  parity 1, data 7,
43 Lost :  data 0, data 7,
44 Lost :  data 8, parity 1,
45 Lost :  parity 1, data 1,
46 Lost :  data 5, data 1,
47 Lost :  data 4, data 0,
48 Lost :  data 2, data 0,
49 Lost :  data 2, data 4,
50 Lost :  data 8, data 3,
51 Lost :  data 8, data 6,
52 Lost :  data 2, data 3,
53 Lost :  data 4, data 0,
54 Lost :  data 4, data 7,
55 Lost :  data 3, data 0,
56 Lost :  data 5, data 7,
57 Lost :  data 3, data 7,
58 Lost :  data 5, data 7,
59 Lost :  data 6, data 7,
60 Lost :  parity 0, data 2,
61 Lost :  data 0, parity 1,
62 Lost :  data 1, data 6,
63 Lost :  data 4, parity 0,
64 Lost :  data 0, data 4,
65 Lost :  data 4, data 1,
66 Lost :  data 4, data 2,
67 Lost :  parity 0, data 4,
68 Lost :  data 6, data 4,
69 Lost :  data 5, data 6,
70 Lost :  data 6, data 0,
71 Lost :  data 1, data 8,
72 Lost :  data 5, data 2,
73 Lost :  data 6, data 5,
74 Lost :  data 1, data 0,
75 Lost :  data 4, data 0,
76 Lost :  data 4, data 7,
77 Lost :  data 4, data 1,
78 Lost :  parity 1, data 1,
79 Lost :  data 6, data 1,
80 Lost :  data 4, parity 0,
81 Lost :  data 2, data 5,
82 Lost :  data 7, data 2,
83 Lost :  parity 0, data 7,
84 Lost :  data 4, data 5,
85 Lost :  data 8, data 1,
86 Lost :  data 7, data 3,
87 Lost :  data 3, parity 0,
88 Lost :  data 3, parity 0,
89 Lost :  parity 1, data 1,
90 Lost :  data 4, data 0,
91 Lost :  data 3, data 8,
92 Lost :  data 5, parity 1,
93 Lost :  data 7, parity 0,
94 Lost :  data 4, data 5,
95 Lost :  data 1, parity 1,
96 Lost :  data 1, data 5,
97 Lost :  data 5, data 4,
98 Lost :  data 0, data 4,
99 Lost :  data 0, parity 0,
 !!! Decode cost 91664 us, init 0 us, total 91664 us, size = 104988672, speed = 1092.304503 MB/s


 *********  End zerasure **********

Using 256-bit vectorization


 ********* Start zerasure *********

Detecting Linux L2 Cache size...
Autoselect packetsize 16384
ZRaid6 K = 10, packetsize = 16384
Malloc... 2d 10 x 8
size is 104857600 Byte, 640 loops
Malloc... 2d 2 x 10485760
 !!! Encode cost 13753 us, init 0 us, total 13753 us, size = 104857600, speed = 7271.140842 MB/s
Malloc... 2d 10 x 10485760
Malloc... 2d 10 x 8
0 Lost :  data 9, data 1,
1 Lost :  data 9, data 5,
2 Lost :  parity 1, data 8,
3 Lost :  parity 0, data 6,
4 Lost :  parity 0, data 1,
5 Lost :  parity 1, data 0,
6 Lost :  data 6, data 0,
7 Lost :  data 1, data 3,
8 Lost :  data 3, data 2,
9 Lost :  data 2, data 0,
10 Lost :  data 3, parity 0,
11 Lost :  data 1, data 5,
12 Lost :  data 0, data 1,
13 Lost :  parity 0, data 4,
14 Lost :  data 9, data 6,
15 Lost :  data 9, data 4,
16 Lost :  data 6, data 4,
17 Lost :  data 1, data 7,
18 Lost :  data 6, data 5,
19 Lost :  data 7, data 6,
20 Lost :  data 4, data 1,
21 Lost :  data 6, parity 0,
22 Lost :  parity 1, data 7,
23 Lost :  data 2, data 9,
24 Lost :  data 8, data 5,
25 Lost :  data 7, data 2,
26 Lost :  data 9, parity 1,
27 Lost :  data 4, parity 1,
28 Lost :  data 3, data 5,
29 Lost :  data 8, data 1,
30 Lost :  data 6, data 7,
31 Lost :  data 0, data 4,
32 Lost :  data 5, data 1,
33 Lost :  data 3, data 5,
34 Lost :  data 5, data 8,
35 Lost :  parity 0, data 5,
36 Lost :  data 0, parity 1,
37 Lost :  parity 1, data 9,
38 Lost :  data 0, data 8,
39 Lost :  data 2, data 6,
40 Lost :  data 2, parity 0,
41 Lost :  data 7, data 8,
42 Lost :  data 5, data 7,
43 Lost :  data 0, data 2,
44 Lost :  data 7, data 9,
45 Lost :  data 7, data 6,
46 Lost :  parity 0, data 6,
47 Lost :  data 6, data 1,
48 Lost :  data 5, parity 1,
49 Lost :  parity 1, data 2,
50 Lost :  data 3, parity 0,
51 Lost :  data 2, data 1,
52 Lost :  data 8, data 0,
53 Lost :  data 0, parity 1,
54 Lost :  parity 0, data 2,
55 Lost :  data 2, data 8,
56 Lost :  data 9, data 2,
57 Lost :  parity 1, data 9,
58 Lost :  data 3, data 8,
59 Lost :  data 3, data 8,
60 Lost :  data 3, data 2,
61 Lost :  data 0, parity 1,
62 Lost :  data 9, data 4,
63 Lost :  data 9, data 7,
64 Lost :  parity 1, data 5,
65 Lost :  data 9, data 3,
66 Lost :  data 6, data 3,
67 Lost :  data 8, data 7,
68 Lost :  data 4, data 3,
69 Lost :  data 7, data 6,
70 Lost :  data 8, data 6,
71 Lost :  data 2, data 3,
72 Lost :  data 8, parity 0,
73 Lost :  data 5, data 1,
74 Lost :  data 0, data 4,
75 Lost :  parity 0, data 0,
76 Lost :  parity 0, data 5,
77 Lost :  data 5, data 1,
78 Lost :  data 1, data 4,
79 Lost :  data 1, data 4,
80 Lost :  data 1, data 7,
81 Lost :  data 1, data 0,
82 Lost :  data 3, data 1,
83 Lost :  data 7, data 1,
84 Lost :  data 0, data 2,
85 Lost :  data 2, data 7,
86 Lost :  parity 1, data 4,
87 Lost :  data 8, parity 1,
88 Lost :  data 7, data 9,
89 Lost :  data 2, parity 0,
90 Lost :  data 7, data 2,
91 Lost :  data 2, data 7,
92 Lost :  data 2, data 3,
93 Lost :  data 3, data 8,
94 Lost :  data 0, parity 1,
95 Lost :  data 8, data 0,
96 Lost :  data 3, data 0,
97 Lost :  data 9, data 7,
98 Lost :  data 9, data 7,
99 Lost :  data 9, data 8,
 !!! Decode cost 92367 us, init 0 us, total 92367 us, size = 104857600, speed = 1082.637739 MB/s


 *********  End zerasure **********

Using 256-bit vectorization


 ********* Start zerasure *********

Detecting Linux L2 Cache size...
Autoselect packetsize 16384
ZRaid6 K = 11, packetsize = 16384
Malloc... 2d 11 x 8
size is 104890368 Byte, 582 loops
Malloc... 2d 2 x 9535488
 !!! Encode cost 13662 us, init 0 us, total 13662 us, size = 104890368, speed = 7321.859903 MB/s
Malloc... 2d 11 x 9535488
Malloc... 2d 11 x 8
0 Lost :  data 2, data 1,
1 Lost :  data 5, data 2,
2 Lost :  data 9, data 8,
3 Lost :  data 6, parity 0,
4 Lost :  data 6, parity 1,
5 Lost :  data 1, data 8,
6 Lost :  parity 0, data 5,
7 Lost :  data 0, data 8,
8 Lost :  data 10, data 3,
9 Lost :  data 1, data 3,
10 Lost :  data 7, data 8,
11 Lost :  data 9, data 2,
12 Lost :  data 7, data 8,
13 Lost :  parity 0, data 10,
14 Lost :  data 4, data 6,
15 Lost :  data 2, data 4,
16 Lost :  parity 1, data 5,
17 Lost :  parity 1, data 3,
18 Lost :  parity 0, data 8,
19 Lost :  parity 0, parity 1,
All parities, skip
19 Lost :  parity 0, data 7,
20 Lost :  parity 1, data 5,
21 Lost :  data 0, data 5,
22 Lost :  parity 1, data 5,
23 Lost :  data 9, parity 0,
24 Lost :  parity 1, data 3,
25 Lost :  data 10, data 9,
26 Lost :  data 4, data 0,
27 Lost :  data 10, data 1,
28 Lost :  parity 0, data 2,
29 Lost :  data 9, data 10,
30 Lost :  data 3, parity 0,
31 Lost :  data 3, parity 1,
32 Lost :  data 8, data 9,
33 Lost :  data 10, data 8,
34 Lost :  parity 0, data 8,
35 Lost :  data 8, data 5,
36 Lost :  data 7, data 2,
37 Lost :  data 6, data 2,
38 Lost :  data 6, data 4,
39 Lost :  data 4, data 1,
40 Lost :  data 3, data 0,
41 Lost :  data 10, data 6,
42 Lost :  data 3, data 2,
43 Lost :  data 1, data 10,
44 Lost :  data 1, parity 0,
45 Lost :  data 5, data 2,
46 Lost :  parity 1, data 10,
47 Lost :  data 0, data 8,
48 Lost :  data 2, data 4,
49 Lost :  data 2, data 7,
50 Lost :  data 8, data 0,
51 Lost :  data 8, parity 0,
52 Lost :  data 4, data 10,
53 Lost :  data 10, data 2,
54 Lost :  data 10, data 2,
55 Lost :  data 1, parity 1,
56 Lost :  data 0, parity 0,
57 Lost :  data 9, data 2,
58 Lost :  data 2, data 4,
59 Lost :  data 10, data 6,
60 Lost :  data 4, data 2,
61 Lost :  data 3, data 2,
62 Lost :  data 3, data 2,
63 Lost :  data 8, data 7,
64 Lost :  parity 0, data 8,
65 Lost :  data 1, data 8,
66 Lost :  data 8, data 3,
67 Lost :  data 0, data 4,
68 Lost :  data 6, data 0,
69 Lost :  data 4, data 6,
70 Lost :  data 4, data 5,
71 Lost :  parity 1, data 0,
72 Lost :  data 0, data 4,
73 Lost :  data 7, data 3,
74 Lost :  data 3, data 10,
75 Lost :  data 1, data 10,
76 Lost :  data 8, data 10,
77 Lost :  data 5, parity 0,
78 Lost :  parity 0, data 7,
79 Lost :  data 2, data 4,
80 Lost :  data 0, data 3,
81 Lost :  data 9, data 1,
82 Lost :  data 4, data 3,
83 Lost :  data 5, data 6,
84 Lost :  data 1, data 7,
85 Lost :  parity 1, data 10,
86 Lost :  data 0, data 9,
87 Lost :  data 9, data 7,
88 Lost :  data 9, data 0,
89 Lost :  data 2, data 0,
90 Lost :  data 1, data 3,
91 Lost :  parity 1, data 4,
92 Lost :  parity 1, data 10,
93 Lost :  data 9, data 10,
94 Lost :  data 9, parity 0,
95 Lost :  data 4, data 5,
96 Lost :  data 1, data 4,
97 Lost :  data 1, data 9,
98 Lost :  data 6, data 9,
99 Lost :  parity 1, data 5,
 !!! Decode cost 92840 us, init 0 us, total 92840 us, size = 104890368, speed = 1077.458531 MB/s


 *********  End zerasure **********

Using 256-bit vectorization


 ********* Start zerasure *********

Detecting Linux L2 Cache size...
Autoselect packetsize 16384
ZRaid6 K = 12, packetsize = 16384
Malloc... 2d 12 x 8
size is 104988672 Byte, 534 loops
Malloc... 2d 2 x 8749056
 !!! Encode cost 13690 us, init 0 us, total 13690 us, size = 104988672, speed = 7313.732652 MB/s
Malloc... 2d 12 x 8749056
Malloc... 2d 12 x 8
0 Lost :  data 2, data 10,
1 Lost :  data 2, data 8,
2 Lost :  parity 1, data 2,
3 Lost :  parity 1, data 8,
4 Lost :  data 2, data 8,
5 Lost :  data 10, data 4,
6 Lost :  data 3, data 10,
7 Lost :  data 4, data 1,
8 Lost :  parity 1, data 6,
9 Lost :  data 2, data 6,
10 Lost :  data 5, data 6,
11 Lost :  data 2, parity 0,
12 Lost :  data 9, parity 1,
13 Lost :  data 2, data 8,
14 Lost :  data 0, data 4,
15 Lost :  data 0, data 1,
16 Lost :  data 6, data 0,
17 Lost :  data 5, data 11,
18 Lost :  data 11, data 7,
19 Lost :  data 1, data 5,
20 Lost :  data 1, data 4,
21 Lost :  data 4, data 5,
22 Lost :  data 11, data 7,
23 Lost :  data 11, data 9,
24 Lost :  data 1, data 6,
25 Lost :  data 10, data 5,
26 Lost :  data 3, parity 0,
27 Lost :  parity 0, data 9,
28 Lost :  data 0, data 6,
29 Lost :  parity 0, data 8,
30 Lost :  parity 0, data 6,
31 Lost :  data 7, data 6,
32 Lost :  data 10, data 2,
33 Lost :  data 9, data 2,
34 Lost :  data 5, data 8,
35 Lost :  data 9, data 10,
36 Lost :  parity 0, data 10,
37 Lost :  data 8, data 10,
38 Lost :  data 8, parity 1,
39 Lost :  data 10, data 0,
40 Lost :  data 10, data 0,
41 Lost :  data 10, data 8,
42 Lost :  data 5, data 6,
43 Lost :  data 9, data 6,
44 Lost :  data 3, data 6,
45 Lost :  data 6, data 11,
46 Lost :  data 8, data 11,
47 Lost :  parity 1, data 11,
48 Lost :  data 1, data 9,
49 Lost :  data 0, data 3,
50 Lost :  data 11, data 3,
51 Lost :  data 5, data 0,
52 Lost :  data 6, data 5,
53 Lost :  data 5, data 10,
54 Lost :  data 6, data 9,
55 Lost :  data 0, data 4,
56 Lost :  data 8, data 11,
57 Lost :  data 1, data 4,
58 Lost :  data 0, data 9,
59 Lost :  data 4, data 9,
60 Lost :  data 1, data 9,
61 Lost :  data 3, data 5,
62 Lost :  parity 0, data 7,
63 Lost :  data 1, data 0,
64 Lost :  data 11, data 5,
65 Lost :  data 2, data 5,
66 Lost :  parity 0, data 5,
67 Lost :  data 6, parity 1,
68 Lost :  data 2, parity 1,
69 Lost :  data 10, parity 1,
70 Lost :  parity 0, data 8,
71 Lost :  data 9, parity 0,
72 Lost :  data 9, data 5,
73 Lost :  data 7, parity 0,
74 Lost :  data 1, data 2,
75 Lost :  data 3, data 4,
76 Lost :  data 0, data 2,
77 Lost :  data 1, data 2,
78 Lost :  data 1, parity 1,
79 Lost :  parity 1, data 3,
80 Lost :  data 9, data 6,
81 Lost :  data 4, data 7,
82 Lost :  data 6, data 7,
83 Lost :  data 1, data 0,
84 Lost :  data 3, data 0,
85 Lost :  data 8, data 11,
86 Lost :  data 0, data 11,
87 Lost :  data 11, parity 0,
88 Lost :  parity 0, data 2,
89 Lost :  data 6, data 8,
90 Lost :  data 1, data 5,
91 Lost :  data 11, parity 1,
92 Lost :  parity 0, parity 1,
All parities, skip
92 Lost :  data 1, data 9,
93 Lost :  data 6, data 9,
94 Lost :  data 6, data 4,
95 Lost :  data 1, data 9,
96 Lost :  parity 1, data 0,
97 Lost :  data 3, data 7,
98 Lost :  data 10, data 1,
99 Lost :  data 6, data 8,
 !!! Decode cost 93344 us, init 0 us, total 93344 us, size = 104988672, speed = 1072.645269 MB/s


 *********  End zerasure **********

Using 256-bit vectorization


 ********* Start zerasure *********

Detecting Linux L2 Cache size...
Autoselect packetsize 16384
ZRaid6 K = 13, packetsize = 16384
Malloc... 2d 13 x 8
size is 105005056 Byte, 493 loops
Malloc... 2d 2 x 8077312
 !!! Encode cost 13636 us, init 0 us, total 13636 us, size = 105005056, speed = 7343.841669 MB/s
Malloc... 2d 13 x 8077312
Malloc... 2d 13 x 8
0 Lost :  parity 0, data 7,
1 Lost :  data 12, data 7,
2 Lost :  data 12, data 11,
3 Lost :  data 12, data 10,
4 Lost :  data 0, data 10,
5 Lost :  data 0, parity 0,
6 Lost :  data 6, data 12,
7 Lost :  data 11, parity 1,
8 Lost :  data 9, data 2,
9 Lost :  data 2, data 3,
10 Lost :  data 6, data 3,
11 Lost :  data 12, data 4,
12 Lost :  parity 1, parity 0,
All parities, skip
12 Lost :  data 6, data 4,
13 Lost :  parity 1, parity 0,
All parities, skip
13 Lost :  data 0, parity 0,
14 Lost :  parity 1, data 2,
15 Lost :  data 9, data 1,
16 Lost :  data 11, data 6,
17 Lost :  data 1, data 10,
18 Lost :  parity 1, data 5,
19 Lost :  data 5, data 11,
20 Lost :  data 7, data 1,
21 Lost :  data 3, data 1,
22 Lost :  data 0, data 11,
23 Lost :  data 0, data 8,
24 Lost :  data 9, data 10,
25 Lost :  data 9, data 2,
26 Lost :  data 9, data 2,
27 Lost :  data 3, data 1,
28 Lost :  data 3, data 10,
29 Lost :  data 2, data 8,
30 Lost :  data 6, data 11,
31 Lost :  data 10, data 6,
32 Lost :  data 5, parity 1,
33 Lost :  data 1, data 9,
34 Lost :  data 1, data 12,
35 Lost :  data 1, parity 1,
36 Lost :  data 8, data 9,
37 Lost :  data 10, data 4,
38 Lost :  data 3, data 4,
39 Lost :  data 9, data 10,
40 Lost :  data 9, parity 1,
41 Lost :  data 9, data 8,
42 Lost :  data 6, parity 1,
43 Lost :  data 1, data 10,
44 Lost :  data 1, data 10,
45 Lost :  data 4, data 11,
46 Lost :  data 12, parity 0,
47 Lost :  data 11, data 12,
48 Lost :  data 0, data 7,
49 Lost :  data 3, data 2,
50 Lost :  data 3, data 1,
51 Lost :  data 3, data 1,
52 Lost :  parity 1, data 2,
53 Lost :  data 0, parity 0,
54 Lost :  data 2, data 12,
55 Lost :  data 7, data 12,
56 Lost :  data 12, data 9,
57 Lost :  data 12, data 0,
58 Lost :  data 11, data 8,
59 Lost :  data 8, data 3,
60 Lost :  data 11, data 3,
61 Lost :  data 8, data 0,
62 Lost :  data 10, parity 0,
63 Lost :  parity 0, data 0,
64 Lost :  data 3, data 0,
65 Lost :  data 12, data 6,
66 Lost :  parity 0, data 0,
67 Lost :  data 4, data 1,
68 Lost :  data 8, parity 0,
69 Lost :  data 4, data 1,
70 Lost :  data 0, parity 0,
71 Lost :  data 11, data 9,
72 Lost :  parity 0, data 9,
73 Lost :  data 4, parity 0,
74 Lost :  data 10, data 3,
75 Lost :  data 9, data 5,
76 Lost :  data 10, data 8,
77 Lost :  data 11, data 4,
78 Lost :  data 11, parity 0,
79 Lost :  parity 1, data 10,
80 Lost :  data 7, data 2,
81 Lost :  data 11, data 8,
82 Lost :  data 5, data 8,
83 Lost :  data 6, data 8,
84 Lost :  data 3, parity 1,
85 Lost :  data 1, data 3,
86 Lost :  parity 0, data 5,
87 Lost :  data 7, data 5,
88 Lost :  data 11, data 5,
89 Lost :  data 11, data 12,
90 Lost :  data 10, data 6,
91 Lost :  data 9, data 4,
92 Lost :  data 4, data 11,
93 Lost :  data 8, data 4,
94 Lost :  data 8, data 0,
95 Lost :  data 8, data 5,
96 Lost :  parity 1, data 1,
97 Lost :  data 3, data 5,
98 Lost :  data 7, data 3,
99 Lost :  data 11, data 5,
 !!! Decode cost 93521 us, init 0 us, total 93521 us, size = 105005056, speed = 1070.782231 MB/s


 *********  End zerasure **********

Using 256-bit vectorization


 ********* Start zerasure *********

Detecting Linux L2 Cache size...
Autoselect packetsize 8192
ZRaid6 K = 14, packetsize = 8192
Malloc... 2d 14 x 8
size is 104939520 Byte, 915 loops
Malloc... 2d 2 x 7495680
 !!! Encode cost 12501 us, init 0 us, total 12501 us, size = 104939520, speed = 8005.609551 MB/s
Malloc... 2d 14 x 7495680
Malloc... 2d 14 x 8
0 Lost :  data 0, data 12,
1 Lost :  parity 0, data 13,
2 Lost :  data 2, data 8,
3 Lost :  data 2, data 10,
4 Lost :  data 11, parity 1,
5 Lost :  parity 1, data 7,
6 Lost :  data 2, data 8,
7 Lost :  data 4, data 7,
8 Lost :  data 12, data 7,
9 Lost :  data 3, data 8,
10 Lost :  data 13, data 5,
11 Lost :  data 4, parity 1,
12 Lost :  data 11, parity 1,
13 Lost :  data 11, data 6,
14 Lost :  data 11, data 6,
15 Lost :  parity 0, data 3,
16 Lost :  data 2, data 12,
17 Lost :  data 3, data 11,
18 Lost :  data 10, data 12,
19 Lost :  data 10, data 0,
20 Lost :  data 8, data 4,
21 Lost :  data 3, data 4,
22 Lost :  data 10, data 13,
23 Lost :  data 1, data 13,
24 Lost :  parity 0, data 3,
25 Lost :  data 11, data 5,
26 Lost :  data 10, data 4,
27 Lost :  data 5, data 11,
28 Lost :  data 9, parity 1,
29 Lost :  data 0, parity 1,
30 Lost :  data 2, data 7,
31 Lost :  data 8, parity 1,
32 Lost :  data 7, data 9,
33 Lost :  data 6, data 13,
34 Lost :  data 3, data 2,
35 Lost :  data 4, parity 1,
36 Lost :  parity 0, parity 1,
All parities, skip
36 Lost :  data 8, parity 1,
37 Lost :  data 13, data 11,
38 Lost :  data 3, data 8,
39 Lost :  data 4, data 8,
40 Lost :  data 13, data 0,
41 Lost :  data 9, data 8,
42 Lost :  parity 0, data 13,
43 Lost :  data 6, parity 0,
44 Lost :  data 11, data 13,
45 Lost :  data 11, data 6,
46 Lost :  data 11, data 13,
47 Lost :  data 12, data 11,
48 Lost :  data 5, data 11,
49 Lost :  data 3, data 11,
50 Lost :  data 12, data 2,
51 Lost :  parity 0, data 2,
52 Lost :  data 2, data 6,
53 Lost :  data 0, parity 1,
54 Lost :  data 2, data 7,
55 Lost :  data 7, data 13,
56 Lost :  data 9, parity 1,
57 Lost :  data 5, parity 1,
58 Lost :  data 9, data 1,
59 Lost :  data 13, data 3,
60 Lost :  data 12, data 10,
61 Lost :  data 10, parity 0,
62 Lost :  data 2, data 13,
63 Lost :  data 0, data 11,
64 Lost :  data 7, data 4,
65 Lost :  parity 0, data 7,
66 Lost :  data 7, data 2,
67 Lost :  data 4, parity 0,
68 Lost :  data 0, data 11,
69 Lost :  data 6, data 12,
70 Lost :  data 6, data 12,
71 Lost :  data 6, data 7,
72 Lost :  data 8, data 3,
73 Lost :  data 6, data 13,
74 Lost :  parity 0, data 5,
75 Lost :  parity 0, data 1,
76 Lost :  parity 0, data 1,
77 Lost :  parity 0, data 10,
78 Lost :  data 2, data 0,
79 Lost :  data 2, data 13,
80 Lost :  data 1, data 11,
81 Lost :  data 8, parity 0,
82 Lost :  data 6, parity 1,
83 Lost :  data 6, data 3,
84 Lost :  data 7, data 3,
85 Lost :  data 3, data 10,
86 Lost :  parity 0, data 1,
87 Lost :  data 8, data 10,
88 Lost :  data 8, data 2,
89 Lost :  data 8, data 1,
90 Lost :  data 3, data 8,
91 Lost :  data 7, data 8,
92 Lost :  data 3, data 6,
93 Lost :  data 7, data 6,
94 Lost :  parity 0, data 0,
95 Lost :  data 0, data 13,
96 Lost :  data 4, data 6,
97 Lost :  data 12, data 8,
98 Lost :  data 12, data 11,
99 Lost :  data 3, data 2,
 !!! Decode cost 94358 us, init 0 us, total 94358 us, size = 104939520, speed = 1060.621516 MB/s


 *********  End zerasure **********

Using 256-bit vectorization


 ********* Start zerasure *********

Detecting Linux L2 Cache size...
Autoselect packetsize 8192
ZRaid6 K = 15, packetsize = 8192
Malloc... 2d 15 x 8
size is 104939520 Byte, 854 loops
Malloc... 2d 2 x 6995968
 !!! Encode cost 12839 us, init 0 us, total 12839 us, size = 104939520, speed = 7794.853571 MB/s
Malloc... 2d 15 x 6995968
Malloc... 2d 15 x 8
0 Lost :  data 1, data 11,
1 Lost :  data 12, data 0,
2 Lost :  data 14, data 10,
3 Lost :  data 12, data 11,
4 Lost :  data 13, data 9,
5 Lost :  data 13, data 7,
6 Lost :  parity 0, data 11,
7 Lost :  data 8, data 2,
8 Lost :  data 6, data 10,
9 Lost :  parity 1, data 14,
10 Lost :  data 8, parity 0,
11 Lost :  data 12, data 6,
12 Lost :  data 0, data 10,
13 Lost :  parity 1, data 11,
14 Lost :  data 5, data 13,
15 Lost :  data 0, data 10,
16 Lost :  data 5, data 10,
17 Lost :  data 5, data 2,
18 Lost :  data 5, data 11,
19 Lost :  data 5, data 1,
20 Lost :  data 4, data 14,
21 Lost :  data 7, data 14,
22 Lost :  data 1, data 14,
23 Lost :  data 12, data 14,
24 Lost :  data 12, parity 0,
25 Lost :  parity 0, data 9,
26 Lost :  data 14, parity 1,
27 Lost :  data 2, data 5,
28 Lost :  data 3, data 7,
29 Lost :  data 14, data 4,
30 Lost :  data 10, data 7,
31 Lost :  data 10, data 0,
32 Lost :  data 12, data 13,
33 Lost :  data 0, data 1,
34 Lost :  data 5, data 11,
35 Lost :  data 2, data 10,
36 Lost :  data 0, data 7,
37 Lost :  data 11, data 0,
38 Lost :  data 8, data 10,
39 Lost :  data 7, data 3,
40 Lost :  data 2, data 8,
41 Lost :  parity 1, data 1,
42 Lost :  data 12, data 11,
43 Lost :  data 13, data 11,
44 Lost :  data 3, data 5,
45 Lost :  data 4, parity 1,
46 Lost :  data 4, data 0,
47 Lost :  data 8, data 14,
48 Lost :  data 12, data 14,
49 Lost :  data 5, data 1,
50 Lost :  data 3, data 0,
51 Lost :  data 0, data 6,
52 Lost :  data 12, data 6,
53 Lost :  data 10, data 3,
54 Lost :  data 1, parity 0,
55 Lost :  data 1, data 14,
56 Lost :  data 14, parity 0,
57 Lost :  data 14, data 7,
58 Lost :  data 1, data 13,
59 Lost :  data 1, data 13,
60 Lost :  data 8, data 1,
61 Lost :  data 2, data 0,
62 Lost :  data 14, data 4,
63 Lost :  data 14, data 2,
64 Lost :  data 0, data 9,
65 Lost :  data 2, data 1,
66 Lost :  parity 0, data 3,
67 Lost :  data 0, data 5,
68 Lost :  data 0, data 5,
69 Lost :  data 13, parity 1,
70 Lost :  data 13, data 9,
71 Lost :  data 9, data 13,
72 Lost :  data 7, data 10,
73 Lost :  parity 1, data 9,
74 Lost :  parity 1, data 9,
75 Lost :  data 12, data 5,
76 Lost :  data 4, data 2,
77 Lost :  data 7, data 13,
78 Lost :  data 11, data 8,
79 Lost :  data 5, data 10,
80 Lost :  data 7, parity 1,
81 Lost :  data 1, parity 1,
82 Lost :  parity 1, data 3,
83 Lost :  data 1, data 8,
84 Lost :  parity 1, data 8,
85 Lost :  data 13, data 11,
86 Lost :  data 14, data 2,
87 Lost :  parity 0, data 7,
88 Lost :  data 8, data 5,
89 Lost :  data 9, data 13,
90 Lost :  data 3, data 8,
91 Lost :  data 12, data 0,
92 Lost :  data 12, data 8,
93 Lost :  data 10, data 2,
94 Lost :  data 11, data 1,
95 Lost :  data 5, data 1,
96 Lost :  data 5, data 7,
97 Lost :  data 8, data 10,
98 Lost :  data 11, data 14,
99 Lost :  data 3, data 1,
 !!! Decode cost 94783 us, init 0 us, total 94783 us, size = 104939520, speed = 1055.865767 MB/s


 *********  End zerasure **********

Using 256-bit vectorization


 ********* Start zerasure *********

Detecting Linux L2 Cache size...
Autoselect packetsize 8192
ZRaid6 K = 16, packetsize = 8192
Malloc... 2d 16 x 8
size is 104857600 Byte, 800 loops
Malloc... 2d 2 x 6553600
 !!! Encode cost 12402 us, init 0 us, total 12402 us, size = 104857600, speed = 8063.215610 MB/s
Malloc... 2d 16 x 6553600
Malloc... 2d 16 x 8
0 Lost :  data 14, data 2,
1 Lost :  data 11, data 8,
2 Lost :  data 2, parity 1,
3 Lost :  parity 1, data 8,
4 Lost :  data 7, data 13,
5 Lost :  data 13, data 7,
6 Lost :  data 14, parity 0,
7 Lost :  data 14, parity 0,
8 Lost :  data 7, data 13,
9 Lost :  data 0, parity 0,
10 Lost :  data 0, data 15,
11 Lost :  data 12, parity 1,
12 Lost :  data 9, data 0,
13 Lost :  data 4, data 2,
14 Lost :  data 13, data 2,
15 Lost :  data 11, data 4,
16 Lost :  data 2, data 6,
17 Lost :  data 3, data 0,
18 Lost :  data 10, data 11,
19 Lost :  data 9, data 14,
20 Lost :  data 13, data 6,
21 Lost :  data 13, data 2,
22 Lost :  data 2, data 8,
23 Lost :  data 1, data 12,
24 Lost :  data 13, data 7,
25 Lost :  data 14, parity 1,
26 Lost :  data 7, data 3,
27 Lost :  data 7, data 13,
28 Lost :  data 11, data 13,
29 Lost :  data 11, data 2,
30 Lost :  data 8, data 11,
31 Lost :  data 8, data 2,
32 Lost :  data 9, data 6,
33 Lost :  data 0, data 12,
34 Lost :  data 10, data 13,
35 Lost :  parity 1, data 9,
36 Lost :  parity 1, data 1,
37 Lost :  data 12, data 0,
38 Lost :  data 1, data 0,
39 Lost :  data 11, data 12,
40 Lost :  data 5, data 12,
41 Lost :  data 3, data 12,
42 Lost :  data 10, data 14,
43 Lost :  data 8, data 14,
44 Lost :  data 14, parity 1,
45 Lost :  parity 0, data 14,
46 Lost :  data 8, data 14,
47 Lost :  data 0, data 15,
48 Lost :  data 13, parity 0,
49 Lost :  data 12, data 15,
50 Lost :  data 12, data 13,
51 Lost :  data 11, data 2,
52 Lost :  data 13, data 8,
53 Lost :  data 4, data 1,
54 Lost :  data 4, data 1,
55 Lost :  data 14, data 5,
56 Lost :  data 8, data 9,
57 Lost :  data 13, data 9,
58 Lost :  data 2, data 0,
59 Lost :  data 3, data 1,
60 Lost :  data 3, data 0,
61 Lost :  data 15, data 13,
62 Lost :  data 11, data 14,
63 Lost :  data 10, data 13,
64 Lost :  data 14, parity 1,
65 Lost :  data 4, parity 1,
66 Lost :  data 3, data 7,
67 Lost :  data 1, data 7,
68 Lost :  data 8, data 9,
69 Lost :  parity 0, data 8,
70 Lost :  parity 1, data 3,
71 Lost :  parity 0, data 14,
72 Lost :  parity 0, parity 1,
All parities, skip
72 Lost :  data 10, data 3,
73 Lost :  data 10, data 13,
74 Lost :  parity 1, data 3,
75 Lost :  parity 1, data 0,
76 Lost :  data 9, data 0,
77 Lost :  data 9, data 15,
78 Lost :  data 3, data 15,
79 Lost :  data 3, data 7,
80 Lost :  parity 0, data 7,
81 Lost :  data 6, data 4,
82 Lost :  data 5, data 12,
83 Lost :  data 4, parity 1,
84 Lost :  data 0, data 11,
85 Lost :  data 0, data 9,
86 Lost :  parity 0, data 6,
87 Lost :  data 14, data 4,
88 Lost :  data 7, data 2,
89 Lost :  data 8, data 6,
90 Lost :  parity 1, data 3,
91 Lost :  data 5, parity 1,
92 Lost :  data 7, data 13,
93 Lost :  data 1, data 0,
94 Lost :  parity 0, parity 1,
All parities, skip
94 Lost :  data 7, data 4,
95 Lost :  data 12, data 4,
96 Lost :  data 12, parity 0,
97 Lost :  parity 0, data 12,
98 Lost :  data 13, data 7,
99 Lost :  data 6, parity 1,
 !!! Decode cost 94846 us, init 0 us, total 94846 us, size = 104857600, speed = 1054.340721 MB/s


 *********  End zerasure **********

Using 256-bit vectorization


 ********* Start zerasure *********

Detecting Linux L2 Cache size...
Autoselect packetsize 8192
ZRaid6 K = 17, packetsize = 8192
Malloc... 2d 17 x 8
size is 104865792 Byte, 753 loops
Malloc... 2d 2 x 6168576
 !!! Encode cost 12554 us, init 0 us, total 12554 us, size = 104865792, speed = 7966.210969 MB/s
Malloc... 2d 17 x 6168576
Malloc... 2d 17 x 8
0 Lost :  data 12, data 5,
1 Lost :  data 12, data 5,
2 Lost :  data 2, data 15,
3 Lost :  data 1, data 12,
4 Lost :  parity 0, data 12,
5 Lost :  data 12, data 4,
6 Lost :  data 7, data 5,
7 Lost :  data 1, data 16,
8 Lost :  data 12, data 0,
9 Lost :  data 11, data 9,
10 Lost :  parity 0, data 0,
11 Lost :  data 12, data 5,
12 Lost :  data 11, data 1,
13 Lost :  parity 0, data 1,
14 Lost :  data 16, data 0,
15 Lost :  data 1, data 4,
16 Lost :  data 1, data 11,
17 Lost :  data 4, data 8,
18 Lost :  data 6, data 8,
19 Lost :  data 9, data 2,
20 Lost :  data 6, data 16,
21 Lost :  data 16, data 3,
22 Lost :  data 15, data 3,
23 Lost :  data 8, data 0,
24 Lost :  data 9, data 2,
25 Lost :  data 0, data 6,
26 Lost :  parity 0, parity 1,
All parities, skip
26 Lost :  data 0, data 15,
27 Lost :  data 0, data 8,
28 Lost :  data 2, data 12,
29 Lost :  data 15, data 14,
30 Lost :  data 14, data 1,
31 Lost :  data 14, data 6,
32 Lost :  data 9, data 15,
33 Lost :  data 6, parity 1,
34 Lost :  parity 1, data 6,
35 Lost :  data 9, data 12,
36 Lost :  data 10, data 12,
37 Lost :  data 7, data 5,
38 Lost :  data 5, data 13,
39 Lost :  data 6, data 5,
40 Lost :  data 6, data 1,
41 Lost :  data 15, data 14,
42 Lost :  data 15, data 7,
43 Lost :  data 15, data 2,
44 Lost :  data 15, data 16,
45 Lost :  parity 1, parity 0,
All parities, skip
45 Lost :  data 15, data 5,
46 Lost :  data 7, parity 1,
47 Lost :  data 3, parity 0,
48 Lost :  data 7, parity 1,
49 Lost :  data 0, parity 1,
50 Lost :  data 12, parity 1,
51 Lost :  data 6, parity 1,
52 Lost :  data 12, parity 1,
53 Lost :  data 11, data 9,
54 Lost :  data 2, data 9,
55 Lost :  data 10, data 15,
56 Lost :  parity 0, data 9,
57 Lost :  data 9, data 10,
58 Lost :  data 8, parity 0,
59 Lost :  data 2, data 15,
60 Lost :  data 7, data 6,
61 Lost :  data 12, data 16,
62 Lost :  data 0, data 16,
63 Lost :  data 0, data 9,
64 Lost :  data 5, parity 1,
65 Lost :  data 5, data 7,
66 Lost :  data 8, data 14,
67 Lost :  data 14, data 10,
68 Lost :  data 1, data 9,
69 Lost :  parity 0, data 5,
70 Lost :  data 1, parity 1,
71 Lost :  data 13, parity 1,
72 Lost :  data 3, data 12,
73 Lost :  data 15, parity 1,
74 Lost :  data 12, data 10,
75 Lost :  data 8, data 3,
76 Lost :  data 8, parity 1,
77 Lost :  data 8, data 4,
78 Lost :  parity 0, data 5,
79 Lost :  parity 0, data 5,
80 Lost :  parity 0, parity 1,
All parities, skip
80 Lost :  data 9, data 3,
81 Lost :  data 15, parity 1,
82 Lost :  data 7, data 0,
83 Lost :  data 2, data 7,
84 Lost :  data 9, data 6,
85 Lost :  data 15, data 5,
86 Lost :  parity 0, data 7,
87 Lost :  data 0, data 3,
88 Lost :  data 15, data 2,
89 Lost :  data 14, data 15,
90 Lost :  data 4, data 13,
91 Lost :  data 9, data 1,
92 Lost :  parity 0, data 4,
93 Lost :  data 6, data 5,
94 Lost :  data 5, parity 0,
95 Lost :  data 11, data 9,
96 Lost :  data 8, data 1,
97 Lost :  data 8, parity 1,
98 Lost :  data 15, data 13,
99 Lost :  data 0, data 13,
 !!! Decode cost 95964 us, init 0 us, total 95964 us, size = 104865792, speed = 1042.138849 MB/s


 *********  End zerasure **********

Using 256-bit vectorization


 ********* Start zerasure *********

Detecting Linux L2 Cache size...
Autoselect packetsize 8192
ZRaid6 K = 18, packetsize = 8192
Malloc... 2d 18 x 8
size is 104988672 Byte, 712 loops
Malloc... 2d 2 x 5832704
 !!! Encode cost 12513 us, init 0 us, total 12513 us, size = 104988672, speed = 8001.678255 MB/s
Malloc... 2d 18 x 5832704
Malloc... 2d 18 x 8
0 Lost :  data 9, data 12,
1 Lost :  data 17, data 11,
2 Lost :  data 1, data 6,
3 Lost :  parity 1, data 13,
4 Lost :  data 2, data 13,
5 Lost :  data 7, data 13,
6 Lost :  data 4, data 0,
7 Lost :  data 11, data 1,
8 Lost :  data 7, data 1,
9 Lost :  data 17, data 10,
10 Lost :  data 13, data 4,
11 Lost :  data 16, data 4,
12 Lost :  data 1, data 8,
13 Lost :  parity 1, data 13,
14 Lost :  data 16, data 4,
15 Lost :  data 1, data 8,
16 Lost :  data 1, data 7,
17 Lost :  data 1, data 13,
18 Lost :  data 8, data 1,
19 Lost :  data 16, data 8,
20 Lost :  data 9, data 5,
21 Lost :  data 9, data 11,
22 Lost :  data 6, parity 1,
23 Lost :  data 12, parity 1,
24 Lost :  data 12, data 4,
25 Lost :  data 10, data 0,
26 Lost :  data 12, data 16,
27 Lost :  data 12, data 11,
28 Lost :  data 6, data 10,
29 Lost :  parity 1, data 10,
30 Lost :  data 16, data 15,
31 Lost :  data 15, data 14,
32 Lost :  data 1, data 5,
33 Lost :  data 10, data 9,
34 Lost :  data 16, parity 0,
35 Lost :  data 10, parity 0,
36 Lost :  parity 0, data 0,
37 Lost :  parity 0, data 0,
38 Lost :  data 13, parity 0,
39 Lost :  data 7, data 1,
40 Lost :  data 15, data 4,
41 Lost :  data 1, data 11,
42 Lost :  data 7, data 2,
43 Lost :  data 12, data 10,
44 Lost :  data 14, data 16,
45 Lost :  data 11, data 2,
46 Lost :  parity 1, data 6,
47 Lost :  data 11, data 0,
48 Lost :  data 11, data 3,
49 Lost :  data 12, data 9,
50 Lost :  data 12, data 13,
51 Lost :  data 6, data 5,
52 Lost :  parity 1, data 16,
53 Lost :  data 8, data 4,
54 Lost :  data 8, data 4,
55 Lost :  data 8, data 2,
56 Lost :  data 5, data 1,
57 Lost :  data 5, data 1,
58 Lost :  data 13, data 1,
59 Lost :  data 15, data 1,
60 Lost :  data 2, data 1,
61 Lost :  data 7, data 8,
62 Lost :  data 9, data 2,
63 Lost :  data 10, data 4,
64 Lost :  data 8, data 5,
65 Lost :  data 8, data 10,
66 Lost :  data 2, data 10,
67 Lost :  data 11, data 14,
68 Lost :  data 0, data 11,
69 Lost :  data 14, data 12,
70 Lost :  parity 0, data 12,
71 Lost :  data 12, data 14,
72 Lost :  data 2, data 14,
73 Lost :  data 14, data 13,
74 Lost :  parity 1, data 11,
75 Lost :  data 10, data 8,
76 Lost :  data 16, data 14,
77 Lost :  data 5, data 8,
78 Lost :  data 5, data 8,
79 Lost :  parity 1, data 4,
80 Lost :  data 6, data 12,
81 Lost :  data 15, data 10,
82 Lost :  data 15, data 1,
83 Lost :  data 11, data 5,
84 Lost :  data 16, data 1,
85 Lost :  data 1, data 9,
86 Lost :  parity 1, data 7,
87 Lost :  data 10, data 5,
88 Lost :  data 12, data 7,
89 Lost :  data 4, data 12,
90 Lost :  data 8, data 12,
91 Lost :  data 5, data 2,
92 Lost :  data 3, parity 0,
93 Lost :  data 17, data 7,
94 Lost :  data 8, data 7,
95 Lost :  data 1, parity 0,
96 Lost :  data 12, data 7,
97 Lost :  data 7, data 14,
98 Lost :  parity 1, data 10,
99 Lost :  parity 1, data 14,
 !!! Decode cost 96478 us, init 0 us, total 96478 us, size = 104988672, speed = 1037.801364 MB/s


 *********  End zerasure **********

Using 256-bit vectorization


 ********* Start zerasure *********

Detecting Linux L2 Cache size...
Autoselect packetsize 8192
ZRaid6 K = 19, packetsize = 8192
Malloc... 2d 19 x 8
size is 104906752 Byte, 674 loops
Malloc... 2d 2 x 5521408
 !!! Encode cost 12734 us, init 0 us, total 12734 us, size = 104906752, speed = 7856.673080 MB/s
Malloc... 2d 19 x 5521408
Malloc... 2d 19 x 8
0 Lost :  data 13, data 9,
1 Lost :  data 2, data 8,
2 Lost :  data 16, data 8,
3 Lost :  data 16, data 13,
4 Lost :  data 5, data 0,
5 Lost :  data 12, parity 0,
6 Lost :  data 6, data 8,
7 Lost :  data 17, data 16,
8 Lost :  data 17, data 16,
9 Lost :  parity 0, parity 1,
All parities, skip
9 Lost :  data 5, data 11,
10 Lost :  data 16, data 1,
11 Lost :  data 11, data 1,
12 Lost :  data 17, data 8,
13 Lost :  parity 1, data 10,
14 Lost :  data 9, data 14,
15 Lost :  data 2, data 13,
16 Lost :  data 14, data 2,
17 Lost :  parity 0, parity 1,
All parities, skip
17 Lost :  data 16, data 8,
18 Lost :  data 12, data 13,
19 Lost :  data 18, data 11,
20 Lost :  data 15, data 3,
21 Lost :  data 3, data 0,
22 Lost :  parity 0, data 1,
23 Lost :  data 11, parity 0,
24 Lost :  data 11, data 1,
25 Lost :  data 4, data 10,
26 Lost :  data 2, data 13,
27 Lost :  data 14, data 6,
28 Lost :  data 7, data 17,
29 Lost :  data 13, data 18,
30 Lost :  data 3, data 18,
31 Lost :  data 9, data 18,
32 Lost :  data 18, data 13,
33 Lost :  data 18, data 15,
34 Lost :  data 8, parity 1,
35 Lost :  data 14, data 12,
36 Lost :  data 5, data 6,
37 Lost :  data 9, data 6,
38 Lost :  data 2, data 8,
39 Lost :  data 13, data 8,
40 Lost :  data 0, data 16,
41 Lost :  data 15, data 17,
42 Lost :  data 15, data 13,
43 Lost :  data 18, data 7,
44 Lost :  data 18, data 17,
45 Lost :  data 17, data 8,
46 Lost :  data 17, data 9,
47 Lost :  data 15, data 17,
48 Lost :  data 16, data 14,
49 Lost :  data 8, data 3,
50 Lost :  parity 0, data 9,
51 Lost :  data 3, data 5,
52 Lost :  parity 1, parity 0,
All parities, skip
52 Lost :  data 17, data 9,
53 Lost :  data 9, data 6,
54 Lost :  data 9, data 3,
55 Lost :  data 3, data 9,
56 Lost :  data 11, data 14,
57 Lost :  data 16, data 4,
58 Lost :  data 13, data 17,
59 Lost :  data 13, data 3,
60 Lost :  data 3, data 8,
61 Lost :  data 3, data 12,
62 Lost :  data 3, data 12,
63 Lost :  data 13, data 6,
64 Lost :  data 10, data 16,
65 Lost :  data 10, data 2,
66 Lost :  data 16, data 8,
67 Lost :  data 6, data 18,
68 Lost :  parity 0, data 18,
69 Lost :  data 3, data 18,
70 Lost :  data 18, data 9,
71 Lost :  data 7, parity 1,
72 Lost :  data 11, parity 1,
73 Lost :  data 18, data 11,
74 Lost :  data 3, parity 1,
75 Lost :  data 4, data 6,
76 Lost :  data 13, data 16,
77 Lost :  data 8, data 16,
78 Lost :  data 8, parity 0,
79 Lost :  data 16, data 4,
80 Lost :  data 18, data 11,
81 Lost :  data 18, data 11,
82 Lost :  data 10, data 0,
83 Lost :  data 18, data 9,
84 Lost :  parity 0, data 9,
85 Lost :  data 11, data 2,
86 Lost :  data 12, data 11,
87 Lost :  data 12, data 10,
88 Lost :  data 8, data 15,
89 Lost :  data 8, data 15,
90 Lost :  data 16, data 8,
91 Lost :  data 5, data 10,
92 Lost :  data 6, data 14,
93 Lost :  data 6, data 16,
94 Lost :  data 13, data 18,
95 Lost :  data 7, data 17,
96 Lost :  data 7, data 16,
97 Lost :  data 4, data 11,
98 Lost :  data 1, data 11,
99 Lost :  data 6, data 11,
 !!! Decode cost 96900 us, init 0 us, total 96900 us, size = 104906752, speed = 1032.475490 MB/s


 *********  End zerasure **********

Using 256-bit vectorization


 ********* Start zerasure *********

Detecting Linux L2 Cache size...
Autoselect packetsize 8192
ZRaid6 K = 20, packetsize = 8192
Malloc... 2d 20 x 8
size is 104857600 Byte, 640 loops
Malloc... 2d 2 x 5242880
 !!! Encode cost 12271 us, init 0 us, total 12271 us, size = 104857600, speed = 8149.295086 MB/s
Malloc... 2d 20 x 5242880
Malloc... 2d 20 x 8
0 Lost :  data 12, data 14,
1 Lost :  data 5, data 11,
2 Lost :  data 4, data 8,
3 Lost :  data 5, data 13,
4 Lost :  data 15, data 2,
5 Lost :  data 4, data 13,
6 Lost :  parity 1, data 9,
7 Lost :  data 2, data 15,
8 Lost :  data 15, data 6,
9 Lost :  data 9, data 4,
10 Lost :  data 4, data 0,
11 Lost :  parity 1, data 15,
12 Lost :  data 16, data 15,
13 Lost :  data 12, data 14,
14 Lost :  data 12, data 0,
15 Lost :  data 9, data 19,
16 Lost :  data 15, data 0,
17 Lost :  data 12, data 0,
18 Lost :  parity 1, data 0,
19 Lost :  data 19, data 18,
20 Lost :  data 3, data 16,
21 Lost :  data 8, data 3,
22 Lost :  data 13, parity 0,
23 Lost :  data 17, data 10,
24 Lost :  data 9, data 5,
25 Lost :  data 18, data 1,
26 Lost :  data 19, data 9,
27 Lost :  data 11, data 6,
28 Lost :  data 6, data 13,
29 Lost :  data 13, data 10,
30 Lost :  data 1, data 2,
31 Lost :  data 2, data 14,
32 Lost :  data 13, parity 0,
33 Lost :  data 18, data 10,
34 Lost :  data 10, data 11,
35 Lost :  data 10, data 5,
36 Lost :  data 9, data 5,
37 Lost :  data 1, data 17,
38 Lost :  data 1, data 2,
39 Lost :  data 3, data 9,
40 Lost :  data 17, data 13,
41 Lost :  data 9, data 4,
42 Lost :  data 11, data 12,
43 Lost :  data 12, data 0,
44 Lost :  data 19, data 17,
45 Lost :  data 18, data 4,
46 Lost :  data 18, data 19,
47 Lost :  data 0, data 1,
48 Lost :  data 0, data 2,
49 Lost :  data 3, data 6,
50 Lost :  data 1, data 7,
51 Lost :  data 9, data 12,
52 Lost :  data 12, data 19,
53 Lost :  data 10, data 7,
54 Lost :  data 8, data 15,
55 Lost :  data 4, data 11,
56 Lost :  data 3, data 5,
57 Lost :  data 3, data 7,
58 Lost :  data 3, data 5,
59 Lost :  parity 1, data 7,
60 Lost :  parity 1, data 1,
61 Lost :  data 9, data 1,
62 Lost :  data 6, data 13,
63 Lost :  data 19, data 16,
64 Lost :  data 19, data 3,
65 Lost :  data 8, data 7,
66 Lost :  data 16, data 7,
67 Lost :  data 18, parity 0,
68 Lost :  data 1, parity 0,
69 Lost :  data 4, data 7,
70 Lost :  data 4, data 19,
71 Lost :  data 17, data 3,
72 Lost :  data 17, data 13,
73 Lost :  data 3, data 14,
74 Lost :  data 5, data 12,
75 Lost :  data 2, data 12,
76 Lost :  data 2, data 1,
77 Lost :  data 18, data 4,
78 Lost :  data 18, data 17,
79 Lost :  data 7, data 3,
80 Lost :  data 7, data 18,
81 Lost :  parity 1, data 18,
82 Lost :  data 8, data 10,
83 Lost :  data 3, data 8,
84 Lost :  data 8, data 1,
85 Lost :  data 8, data 18,
86 Lost :  data 17, data 2,
87 Lost :  data 13, data 5,
88 Lost :  data 3, data 7,
89 Lost :  data 3, data 18,
90 Lost :  data 12, data 2,
91 Lost :  parity 1, data 0,
92 Lost :  data 0, data 10,
93 Lost :  data 0, data 15,
94 Lost :  data 4, parity 1,
95 Lost :  data 0, data 17,
96 Lost :  parity 0, data 18,
97 Lost :  data 13, data 18,
98 Lost :  data 13, data 6,
99 Lost :  data 6, data 19,
 !!! Decode cost 97609 us, init 0 us, total 97609 us, size = 104857600, speed = 1024.495692 MB/s


 *********  End zerasure **********

Using 256-bit vectorization


 ********* Start zerasure *********

Detecting Linux L2 Cache size...
Autoselect packetsize 8192
ZRaid6 K = 21, packetsize = 8192
Malloc... 2d 21 x 8
size is 104939520 Byte, 610 loops
Malloc... 2d 2 x 4997120
 !!! Encode cost 12735 us, init 0 us, total 12735 us, size = 104939520, speed = 7858.510012 MB/s
Malloc... 2d 21 x 4997120
Malloc... 2d 21 x 8
0 Lost :  parity 0, data 2,
1 Lost :  data 11, data 6,
2 Lost :  data 9, parity 1,
3 Lost :  data 8, parity 1,
4 Lost :  data 15, data 18,
5 Lost :  data 17, parity 1,
6 Lost :  data 8, data 0,
7 Lost :  parity 1, data 19,
8 Lost :  data 19, data 4,
9 Lost :  data 13, data 2,
10 Lost :  data 13, data 15,
11 Lost :  data 7, data 8,
12 Lost :  data 0, parity 0,
13 Lost :  data 4, data 9,
14 Lost :  data 13, data 4,
15 Lost :  data 11, data 4,
16 Lost :  data 1, data 3,
17 Lost :  data 1, data 13,
18 Lost :  data 5, parity 0,
19 Lost :  data 9, data 6,
20 Lost :  data 10, data 8,
21 Lost :  data 19, data 3,
22 Lost :  data 15, data 0,
23 Lost :  data 15, data 2,
24 Lost :  data 18, data 9,
25 Lost :  data 13, data 14,
26 Lost :  data 16, data 19,
27 Lost :  data 12, data 0,
28 Lost :  data 13, data 0,
29 Lost :  data 13, data 16,
30 Lost :  data 12, data 3,
31 Lost :  data 14, data 15,
32 Lost :  data 10, data 12,
33 Lost :  data 14, data 12,
34 Lost :  data 14, data 4,
35 Lost :  data 14, data 3,
36 Lost :  data 13, data 17,
37 Lost :  data 15, parity 0,
38 Lost :  data 15, data 14,
39 Lost :  data 0, data 1,
40 Lost :  data 0, data 6,
41 Lost :  data 5, data 20,
42 Lost :  data 10, parity 1,
43 Lost :  data 0, parity 1,
44 Lost :  data 20, data 2,
45 Lost :  data 11, data 4,
46 Lost :  data 11, data 7,
47 Lost :  data 4, data 5,
48 Lost :  data 9, data 5,
49 Lost :  data 19, data 3,
50 Lost :  data 18, data 0,
51 Lost :  data 19, data 14,
52 Lost :  data 18, data 5,
53 Lost :  data 20, data 5,
54 Lost :  data 6, data 20,
55 Lost :  data 11, data 8,
56 Lost :  data 5, data 11,
57 Lost :  data 2, data 10,
58 Lost :  data 13, data 2,
59 Lost :  data 13, data 18,
60 Lost :  data 19, data 18,
61 Lost :  data 4, data 7,
62 Lost :  data 8, parity 0,
63 Lost :  data 13, parity 0,
64 Lost :  parity 1, parity 0,
All parities, skip
64 Lost :  data 11, data 7,
65 Lost :  data 15, data 9,
66 Lost :  data 4, data 9,
67 Lost :  data 5, data 11,
68 Lost :  data 19, data 14,
69 Lost :  data 5, data 10,
70 Lost :  data 13, data 8,
71 Lost :  parity 1, data 12,
72 Lost :  data 18, data 9,
73 Lost :  data 6, data 15,
74 Lost :  data 10, data 16,
75 Lost :  parity 0, parity 1,
All parities, skip
75 Lost :  data 9, parity 0,
76 Lost :  data 4, data 5,
77 Lost :  data 12, data 11,
78 Lost :  data 8, data 2,
79 Lost :  data 12, data 2,
80 Lost :  data 8, data 0,
81 Lost :  data 8, data 11,
82 Lost :  data 6, data 12,
83 Lost :  data 4, data 14,
84 Lost :  parity 0, data 12,
85 Lost :  parity 0, data 7,
86 Lost :  parity 0, data 7,
87 Lost :  data 4, data 9,
88 Lost :  data 13, data 10,
89 Lost :  data 10, data 3,
90 Lost :  data 20, data 3,
91 Lost :  parity 0, data 9,
92 Lost :  data 15, data 5,
93 Lost :  data 12, data 0,
94 Lost :  data 1, data 4,
95 Lost :  data 1, data 14,
96 Lost :  data 3, data 18,
97 Lost :  data 12, data 9,
98 Lost :  data 7, data 0,
99 Lost :  data 7, data 14,
 !!! Decode cost 96439 us, init 0 us, total 96439 us, size = 104939520, speed = 1037.734993 MB/s


 *********  End zerasure **********

Using 256-bit vectorization


 ********* Start zerasure *********

Detecting Linux L2 Cache size...
Autoselect packetsize 8192
ZRaid6 K = 22, packetsize = 8192
Malloc... 2d 22 x 8
size is 104890368 Byte, 582 loops
Malloc... 2d 2 x 4767744
 !!! Encode cost 12195 us, init 0 us, total 12195 us, size = 104890368, speed = 8202.644526 MB/s
Malloc... 2d 22 x 4767744
Malloc... 2d 22 x 8
0 Lost :  data 0, data 21,
1 Lost :  data 11, data 13,
2 Lost :  data 8, data 1,
3 Lost :  data 18, data 16,
4 Lost :  data 1, data 17,
5 Lost :  data 1, data 9,
6 Lost :  data 1, data 2,
7 Lost :  data 1, parity 0,
8 Lost :  data 21, data 15,
9 Lost :  data 9, data 8,
10 Lost :  data 1, data 17,
11 Lost :  parity 1, data 16,
12 Lost :  data 7, parity 0,
13 Lost :  parity 0, data 13,
14 Lost :  data 16, parity 1,
15 Lost :  data 10, parity 1,
16 Lost :  data 20, data 4,
17 Lost :  data 15, data 11,
18 Lost :  data 15, data 11,
19 Lost :  data 12, data 4,
20 Lost :  data 13, data 3,
21 Lost :  data 6, data 16,
22 Lost :  data 10, data 15,
23 Lost :  data 15, data 8,
24 Lost :  data 15, data 9,
25 Lost :  data 11, data 14,
26 Lost :  data 12, data 14,
27 Lost :  data 12, data 8,
28 Lost :  parity 1, data 21,
29 Lost :  data 11, data 13,
30 Lost :  data 4, data 20,
31 Lost :  data 11, parity 1,
32 Lost :  data 0, data 7,
33 Lost :  data 15, data 7,
34 Lost :  data 13, data 11,
35 Lost :  data 17, data 11,
36 Lost :  data 15, data 14,
37 Lost :  data 5, data 11,
38 Lost :  data 7, data 19,
39 Lost :  data 7, data 12,
40 Lost :  parity 1, data 12,
41 Lost :  data 13, data 8,
42 Lost :  data 13, data 17,
43 Lost :  data 21, data 18,
44 Lost :  data 3, data 18,
45 Lost :  data 20, data 4,
46 Lost :  data 16, data 0,
47 Lost :  data 18, data 0,
48 Lost :  data 1, data 3,
49 Lost :  data 13, data 1,
50 Lost :  data 13, data 3,
51 Lost :  data 7, data 1,
52 Lost :  data 1, data 20,
53 Lost :  parity 1, data 20,
54 Lost :  data 13, data 12,
55 Lost :  data 5, data 18,
56 Lost :  data 5, data 18,
57 Lost :  parity 1, data 17,
58 Lost :  parity 1, data 12,
59 Lost :  parity 1, data 12,
60 Lost :  data 8, data 1,
61 Lost :  data 17, data 20,
62 Lost :  data 10, data 20,
63 Lost :  data 5, data 6,
64 Lost :  data 2, data 7,
65 Lost :  data 9, data 12,
66 Lost :  data 4, data 10,
67 Lost :  data 6, data 4,
68 Lost :  data 3, data 1,
69 Lost :  data 18, data 1,
70 Lost :  data 9, data 20,
71 Lost :  data 9, data 17,
72 Lost :  data 9, parity 0,
73 Lost :  data 20, data 19,
74 Lost :  data 14, data 4,
75 Lost :  data 7, data 4,
76 Lost :  data 10, data 11,
77 Lost :  data 9, data 5,
78 Lost :  data 9, parity 0,
79 Lost :  data 9, data 4,
80 Lost :  data 9, data 4,
81 Lost :  data 13, data 4,
82 Lost :  parity 0, data 14,
83 Lost :  data 20, data 3,
84 Lost :  data 20, data 16,
85 Lost :  data 9, data 3,
86 Lost :  data 5, data 2,
87 Lost :  data 5, parity 1,
88 Lost :  data 16, data 11,
89 Lost :  data 21, data 11,
90 Lost :  data 16, data 7,
91 Lost :  data 5, data 7,
92 Lost :  parity 1, data 5,
93 Lost :  data 6, data 8,
94 Lost :  data 0, data 18,
95 Lost :  data 4, data 5,
96 Lost :  data 8, data 1,
97 Lost :  data 19, data 20,
98 Lost :  data 19, data 6,
99 Lost :  data 18, parity 0,
 !!! Decode cost 96965 us, init 0 us, total 96965 us, size = 104890368, speed = 1031.622235 MB/s


 *********  End zerasure **********

Using 256-bit vectorization


 ********* Start zerasure *********

Detecting Linux L2 Cache size...
Autoselect packetsize 8192
ZRaid6 K = 23, packetsize = 8192
Malloc... 2d 23 x 8
size is 104947712 Byte, 557 loops
Malloc... 2d 2 x 4562944
 !!! Encode cost 12277 us, init 0 us, total 12277 us, size = 104947712, speed = 8152.312251 MB/s
Malloc... 2d 23 x 4562944
Malloc... 2d 23 x 8
0 Lost :  data 12, data 8,
1 Lost :  data 11, data 7,
2 Lost :  data 1, data 7,
3 Lost :  data 6, data 11,
4 Lost :  parity 1, data 12,
5 Lost :  data 20, data 9,
6 Lost :  data 20, data 13,
7 Lost :  data 18, data 6,
8 Lost :  data 0, data 12,
9 Lost :  data 7, data 21,
10 Lost :  data 17, data 14,
11 Lost :  data 15, data 0,
12 Lost :  data 16, data 1,
13 Lost :  data 16, data 20,
14 Lost :  data 6, data 4,
15 Lost :  data 12, data 4,
16 Lost :  data 9, data 3,
17 Lost :  data 8, parity 1,
18 Lost :  data 8, data 19,
19 Lost :  data 6, data 19,
20 Lost :  data 18, data 10,
21 Lost :  data 1, parity 0,
22 Lost :  data 0, data 6,
23 Lost :  data 7, data 6,
24 Lost :  data 13, data 9,
25 Lost :  data 1, data 9,
26 Lost :  data 0, parity 0,
27 Lost :  data 5, data 4,
28 Lost :  data 19, data 4,
29 Lost :  data 6, data 4,
30 Lost :  data 0, data 2,
31 Lost :  data 20, parity 1,
32 Lost :  data 16, data 19,
33 Lost :  data 14, data 1,
34 Lost :  data 13, data 6,
35 Lost :  data 4, data 6,
36 Lost :  data 11, data 6,
37 Lost :  parity 1, data 19,
38 Lost :  data 13, data 4,
39 Lost :  data 9, data 8,
40 Lost :  data 9, data 8,
41 Lost :  data 7, data 3,
42 Lost :  data 0, data 12,
43 Lost :  data 0, data 13,
44 Lost :  data 0, data 1,
45 Lost :  data 20, data 1,
46 Lost :  data 15, parity 1,
47 Lost :  data 0, data 1,
48 Lost :  data 0, data 3,
49 Lost :  data 0, data 22,
50 Lost :  data 10, data 11,
51 Lost :  data 3, data 12,
52 Lost :  data 9, data 2,
53 Lost :  data 6, data 21,
54 Lost :  data 11, data 22,
55 Lost :  data 3, data 16,
56 Lost :  parity 0, data 5,
57 Lost :  data 8, data 11,
58 Lost :  data 4, data 21,
59 Lost :  data 4, data 10,
60 Lost :  data 15, data 22,
61 Lost :  data 1, parity 1,
62 Lost :  parity 1, data 1,
63 Lost :  data 8, data 11,
64 Lost :  data 2, data 9,
65 Lost :  data 2, data 4,
66 Lost :  data 11, data 17,
67 Lost :  data 2, data 17,
68 Lost :  data 2, data 7,
69 Lost :  data 12, data 15,
70 Lost :  data 19, parity 0,
71 Lost :  data 13, data 7,
72 Lost :  data 14, data 8,
73 Lost :  data 17, data 22,
74 Lost :  data 12, data 8,
75 Lost :  data 12, data 21,
76 Lost :  data 12, data 15,
77 Lost :  parity 0, data 15,
78 Lost :  data 12, data 16,
79 Lost :  data 5, data 16,
80 Lost :  data 3, data 18,
81 Lost :  data 3, data 8,
82 Lost :  data 7, data 1,
83 Lost :  parity 0, data 1,
84 Lost :  data 17, data 12,
85 Lost :  data 11, data 1,
86 Lost :  data 9, data 16,
87 Lost :  data 15, parity 1,
88 Lost :  data 0, data 22,
89 Lost :  data 20, data 9,
90 Lost :  data 20, data 18,
91 Lost :  data 8, data 10,
92 Lost :  data 18, data 10,
93 Lost :  data 11, data 15,
94 Lost :  data 11, data 12,
95 Lost :  data 20, data 6,
96 Lost :  data 22, data 6,
97 Lost :  data 5, data 11,
98 Lost :  data 10, data 20,
99 Lost :  data 16, data 4,
 !!! Decode cost 97730 us, init 0 us, total 97730 us, size = 104947712, speed = 1024.106595 MB/s


 *********  End zerasure **********

Using 256-bit vectorization


 ********* Start zerasure *********

Detecting Linux L2 Cache size...
Autoselect packetsize 8192
ZRaid6 K = 24, packetsize = 8192
Malloc... 2d 24 x 8
size is 104988672 Byte, 534 loops
Malloc... 2d 2 x 4374528
 !!! Encode cost 12244 us, init 0 us, total 12244 us, size = 104988672, speed = 8177.474681 MB/s
Malloc... 2d 24 x 4374528
Malloc... 2d 24 x 8
0 Lost :  data 18, data 8,
1 Lost :  data 8, data 0,
2 Lost :  data 10, data 0,
3 Lost :  data 3, data 0,
4 Lost :  data 0, parity 0,
5 Lost :  data 0, data 22,
6 Lost :  parity 0, data 12,
7 Lost :  data 10, data 16,
8 Lost :  parity 1, data 7,
9 Lost :  data 15, parity 1,
10 Lost :  data 15, data 23,
11 Lost :  data 13, data 18,
12 Lost :  parity 0, data 19,
13 Lost :  parity 0, parity 1,
All parities, skip
13 Lost :  data 4, data 22,
14 Lost :  data 4, parity 0,
15 Lost :  data 18, data 2,
16 Lost :  data 6, data 2,
17 Lost :  data 13, data 10,
18 Lost :  parity 1, data 1,
19 Lost :  data 3, data 16,
20 Lost :  data 16, data 10,
21 Lost :  data 11, data 19,
22 Lost :  data 17, data 4,
23 Lost :  parity 1, data 5,
24 Lost :  data 11, data 3,
25 Lost :  data 10, data 1,
26 Lost :  data 8, data 5,
27 Lost :  data 14, data 9,
28 Lost :  data 14, data 12,
29 Lost :  data 11, data 7,
30 Lost :  data 13, parity 0,
31 Lost :  data 1, data 19,
32 Lost :  data 17, data 19,
33 Lost :  parity 1, data 21,
34 Lost :  data 16, data 4,
35 Lost :  data 6, data 19,
36 Lost :  data 5, data 12,
37 Lost :  data 5, data 19,
38 Lost :  parity 1, data 16,
39 Lost :  data 23, data 19,
40 Lost :  data 9, data 19,
41 Lost :  data 7, data 19,
42 Lost :  data 10, data 12,
43 Lost :  data 12, data 11,
44 Lost :  data 18, parity 1,
45 Lost :  data 1, data 11,
46 Lost :  data 1, data 19,
47 Lost :  data 21, data 16,
48 Lost :  parity 1, parity 0,
All parities, skip
48 Lost :  data 20, data 5,
49 Lost :  data 14, data 5,
50 Lost :  data 16, data 11,
51 Lost :  data 3, data 13,
52 Lost :  data 1, data 5,
53 Lost :  data 8, data 21,
54 Lost :  data 4, data 2,
55 Lost :  data 4, data 9,
56 Lost :  data 4, data 15,
57 Lost :  data 6, data 12,
58 Lost :  data 23, data 1,
59 Lost :  data 14, data 4,
60 Lost :  data 5, data 8,
61 Lost :  data 11, data 10,
62 Lost :  data 19, data 10,
63 Lost :  data 13, data 15,
64 Lost :  data 0, data 14,
65 Lost :  data 23, data 11,
66 Lost :  data 19, data 17,
67 Lost :  data 10, data 13,
68 Lost :  data 16, data 19,
69 Lost :  data 13, data 19,
70 Lost :  data 13, data 19,
71 Lost :  data 14, data 0,
72 Lost :  data 20, data 7,
73 Lost :  data 13, data 11,
74 Lost :  data 18, data 16,
75 Lost :  data 8, data 19,
76 Lost :  data 1, data 2,
77 Lost :  data 3, data 9,
78 Lost :  data 15, data 20,
79 Lost :  data 19, data 21,
80 Lost :  data 13, data 6,
81 Lost :  data 6, parity 0,
82 Lost :  data 11, parity 0,
83 Lost :  data 4, data 2,
84 Lost :  data 2, data 17,
85 Lost :  data 21, data 19,
86 Lost :  data 17, data 6,
87 Lost :  data 21, data 0,
88 Lost :  data 2, data 4,
89 Lost :  data 22, data 4,
90 Lost :  data 3, data 9,
91 Lost :  data 1, data 9,
92 Lost :  data 17, data 6,
93 Lost :  data 17, data 7,
94 Lost :  data 21, data 20,
95 Lost :  data 6, data 10,
96 Lost :  data 6, data 18,
97 Lost :  data 12, data 5,
98 Lost :  parity 1, data 10,
99 Lost :  parity 1, data 11,
 !!! Decode cost 97521 us, init 0 us, total 97521 us, size = 104988672, speed = 1026.701941 MB/s


 *********  End zerasure **********

Using 256-bit vectorization


 ********* Start zerasure *********

Detecting Linux L2 Cache size...
Autoselect packetsize 8192
ZRaid6 K = 25, packetsize = 8192
Malloc... 2d 25 x 8
size is 104857600 Byte, 512 loops
Malloc... 2d 2 x 4194304
 !!! Encode cost 12248 us, init 0 us, total 12248 us, size = 104857600, speed = 8164.598302 MB/s
Malloc... 2d 25 x 4194304
Malloc... 2d 25 x 8
0 Lost :  parity 1, data 11,
1 Lost :  data 17, data 10,
2 Lost :  data 19, data 23,
3 Lost :  data 8, data 20,
4 Lost :  data 9, data 4,
5 Lost :  parity 1, data 11,
6 Lost :  data 7, data 17,
7 Lost :  data 14, parity 1,
8 Lost :  data 3, data 18,
9 Lost :  data 3, data 6,
10 Lost :  data 6, data 0,
11 Lost :  data 6, data 3,
12 Lost :  data 1, data 3,
13 Lost :  data 24, data 16,
14 Lost :  data 19, parity 0,
15 Lost :  data 14, data 16,
16 Lost :  data 22, parity 0,
17 Lost :  data 16, parity 0,
18 Lost :  data 22, data 2,
19 Lost :  data 22, data 2,
20 Lost :  data 12, data 2,
21 Lost :  data 15, data 2,
22 Lost :  data 20, data 17,
23 Lost :  data 22, data 17,
24 Lost :  data 17, parity 0,
25 Lost :  data 11, data 24,
26 Lost :  parity 1, data 24,
27 Lost :  parity 1, data 10,
28 Lost :  parity 1, data 9,
29 Lost :  data 23, data 11,
30 Lost :  data 3, parity 1,
31 Lost :  data 6, data 20,
32 Lost :  data 17, data 16,
33 Lost :  data 1, data 23,
34 Lost :  data 10, data 0,
35 Lost :  data 19, data 17,
36 Lost :  data 23, data 5,
37 Lost :  data 0, data 11,
38 Lost :  data 15, data 18,
39 Lost :  data 15, data 22,
40 Lost :  data 12, data 23,
41 Lost :  data 13, data 2,
42 Lost :  data 12, data 21,
43 Lost :  data 11, data 3,
44 Lost :  data 23, parity 0,
45 Lost :  data 17, data 19,
46 Lost :  data 16, data 24,
47 Lost :  data 6, data 10,
48 Lost :  data 12, data 6,
49 Lost :  data 5, data 16,
50 Lost :  data 5, data 18,
51 Lost :  data 18, data 2,
52 Lost :  data 6, parity 1,
53 Lost :  data 4, data 15,
54 Lost :  parity 1, data 14,
55 Lost :  data 24, data 14,
56 Lost :  data 20, data 2,
57 Lost :  data 9, data 18,
58 Lost :  data 18, data 15,
59 Lost :  data 3, data 10,
60 Lost :  data 3, data 11,
61 Lost :  data 20, data 11,
62 Lost :  data 12, data 7,
63 Lost :  data 8, data 15,
64 Lost :  data 0, data 5,
65 Lost :  data 1, data 5,
66 Lost :  data 7, parity 0,
67 Lost :  data 23, parity 0,
68 Lost :  data 14, parity 0,
69 Lost :  data 7, data 22,
70 Lost :  data 3, data 22,
71 Lost :  data 21, data 7,
72 Lost :  parity 0, data 7,
73 Lost :  data 24, data 7,
74 Lost :  data 5, data 9,
75 Lost :  data 10, data 22,
76 Lost :  data 16, data 4,
77 Lost :  data 8, data 10,
78 Lost :  data 23, data 5,
79 Lost :  data 5, parity 0,
80 Lost :  data 14, parity 0,
81 Lost :  data 13, parity 0,
82 Lost :  data 19, data 7,
83 Lost :  parity 1, data 4,
84 Lost :  data 10, data 4,
85 Lost :  data 4, data 15,
86 Lost :  data 9, parity 1,
87 Lost :  data 11, parity 1,
88 Lost :  data 8, data 2,
89 Lost :  data 16, data 8,
90 Lost :  data 0, data 7,
91 Lost :  data 18, data 14,
92 Lost :  data 5, data 21,
93 Lost :  data 19, data 4,
94 Lost :  data 16, data 23,
95 Lost :  data 19, data 24,
96 Lost :  data 19, data 12,
97 Lost :  data 1, data 8,
98 Lost :  data 4, data 24,
99 Lost :  data 18, data 11,
 !!! Decode cost 97690 us, init 0 us, total 97690 us, size = 104857600, speed = 1023.646228 MB/s


 *********  End zerasure **********

Using 256-bit vectorization


 ********* Start zerasure *********

Detecting Linux L2 Cache size...
Autoselect packetsize 8192
ZRaid6 K = 26, packetsize = 8192
Malloc... 2d 26 x 8
size is 105005056 Byte, 493 loops
Malloc... 2d 2 x 4038656
 !!! Encode cost 12735 us, init 0 us, total 12735 us, size = 105005056, speed = 7863.417746 MB/s
Malloc... 2d 26 x 4038656
Malloc... 2d 26 x 8
0 Lost :  parity 0, data 10,
1 Lost :  data 0, data 5,
2 Lost :  parity 0, data 4,
3 Lost :  data 1, data 24,
4 Lost :  data 1, data 12,
5 Lost :  data 12, data 7,
6 Lost :  parity 1, data 24,
7 Lost :  data 6, data 2,
8 Lost :  data 4, data 23,
9 Lost :  data 4, data 13,
10 Lost :  data 18, data 11,
11 Lost :  parity 1, data 10,
12 Lost :  data 25, data 19,
13 Lost :  data 5, data 16,
14 Lost :  data 16, data 5,
15 Lost :  data 16, data 3,
16 Lost :  data 19, data 21,
17 Lost :  data 19, data 21,
18 Lost :  data 23, data 10,
19 Lost :  data 23, data 25,
20 Lost :  data 0, data 19,
21 Lost :  data 25, data 23,
22 Lost :  data 13, data 25,
23 Lost :  data 12, data 2,
24 Lost :  data 17, data 20,
25 Lost :  data 18, data 17,
26 Lost :  data 12, data 17,
27 Lost :  data 21, parity 1,
28 Lost :  data 21, parity 0,
29 Lost :  data 14, data 15,
30 Lost :  data 20, data 25,
31 Lost :  data 14, parity 1,
32 Lost :  data 11, data 8,
33 Lost :  data 4, data 12,
34 Lost :  data 20, data 6,
35 Lost :  data 20, data 25,
36 Lost :  data 25, parity 1,
37 Lost :  data 22, parity 1,
38 Lost :  data 22, data 8,
39 Lost :  data 23, data 1,
40 Lost :  data 23, data 21,
41 Lost :  data 22, data 9,
42 Lost :  data 1, data 5,
43 Lost :  data 7, data 18,
44 Lost :  data 9, data 24,
45 Lost :  data 9, data 8,
46 Lost :  data 10, data 8,
47 Lost :  data 20, data 8,
48 Lost :  data 19, data 8,
49 Lost :  data 8, data 7,
50 Lost :  data 22, data 2,
51 Lost :  data 0, data 3,
52 Lost :  parity 0, data 25,
53 Lost :  data 6, data 25,
54 Lost :  data 6, data 22,
55 Lost :  data 12, data 22,
56 Lost :  data 7, data 22,
57 Lost :  data 25, data 14,
58 Lost :  data 25, data 18,
59 Lost :  data 11, data 18,
60 Lost :  data 19, data 18,
61 Lost :  data 19, data 23,
62 Lost :  data 9, data 18,
63 Lost :  data 3, data 6,
64 Lost :  data 3, data 25,
65 Lost :  data 21, data 20,
66 Lost :  parity 1, data 6,
67 Lost :  data 23, data 6,
68 Lost :  data 23, data 3,
69 Lost :  data 4, data 19,
70 Lost :  data 14, data 2,
71 Lost :  data 14, data 6,
72 Lost :  data 2, data 6,
73 Lost :  parity 1, data 6,
74 Lost :  parity 0, parity 1,
All parities, skip
74 Lost :  data 19, parity 1,
75 Lost :  data 6, data 20,
76 Lost :  data 14, data 3,
77 Lost :  parity 1, data 3,
78 Lost :  data 13, data 4,
79 Lost :  data 10, data 11,
80 Lost :  parity 0, data 11,
81 Lost :  data 0, data 24,
82 Lost :  data 18, data 20,
83 Lost :  data 3, data 14,
84 Lost :  data 2, data 14,
85 Lost :  data 23, data 7,
86 Lost :  data 14, data 7,
87 Lost :  data 5, data 24,
88 Lost :  data 25, data 12,
89 Lost :  data 4, data 11,
90 Lost :  data 2, data 22,
91 Lost :  data 18, data 6,
92 Lost :  data 5, data 19,
93 Lost :  data 9, data 16,
94 Lost :  data 8, data 6,
95 Lost :  data 5, parity 0,
96 Lost :  data 22, parity 0,
97 Lost :  data 23, data 5,
98 Lost :  parity 1, data 23,
99 Lost :  parity 1, data 13,
 !!! Decode cost 97660 us, init 0 us, total 97660 us, size = 105005056, speed = 1025.400625 MB/s


 *********  End zerasure **********

Using 256-bit vectorization


 ********* Start zerasure *********

Detecting Linux L2 Cache size...
Autoselect packetsize 8192
ZRaid6 K = 27, packetsize = 8192
Malloc... 2d 27 x 8
size is 105062400 Byte, 475 loops
Malloc... 2d 2 x 3891200
 !!! Encode cost 12952 us, init 0 us, total 12952 us, size = 105062400, speed = 7735.895036 MB/s
Malloc... 2d 27 x 3891200
Malloc... 2d 27 x 8
0 Lost :  data 7, parity 1,
1 Lost :  data 7, data 20,
2 Lost :  data 23, data 17,
3 Lost :  data 23, data 0,
4 Lost :  data 22, parity 0,
5 Lost :  data 17, data 6,
6 Lost :  data 6, data 14,
7 Lost :  parity 0, data 14,
8 Lost :  data 15, data 16,
9 Lost :  data 12, data 23,
10 Lost :  parity 0, data 2,
11 Lost :  parity 0, data 25,
12 Lost :  data 18, data 25,
13 Lost :  data 25, data 13,
14 Lost :  data 4, parity 0,
15 Lost :  parity 0, data 4,
16 Lost :  parity 0, data 24,
17 Lost :  data 19, data 8,
18 Lost :  data 23, data 8,
19 Lost :  data 19, data 15,
20 Lost :  data 5, data 6,
21 Lost :  parity 1, data 5,
22 Lost :  data 16, data 26,
23 Lost :  data 3, data 24,
24 Lost :  data 16, data 24,
25 Lost :  data 21, data 17,
26 Lost :  data 24, data 11,
27 Lost :  data 17, parity 0,
28 Lost :  data 8, data 3,
29 Lost :  data 11, data 14,
30 Lost :  data 19, data 15,
31 Lost :  data 12, data 25,
32 Lost :  data 1, data 5,
33 Lost :  data 6, data 0,
34 Lost :  parity 1, data 22,
35 Lost :  data 26, data 23,
36 Lost :  data 5, data 19,
37 Lost :  data 16, data 10,
38 Lost :  data 5, parity 0,
39 Lost :  data 9, data 15,
40 Lost :  data 9, data 18,
41 Lost :  data 26, data 1,
42 Lost :  data 21, data 26,
43 Lost :  data 2, data 22,
44 Lost :  data 19, data 22,
45 Lost :  data 1, data 22,
46 Lost :  data 1, data 14,
47 Lost :  data 3, parity 0,
48 Lost :  data 1, data 5,
49 Lost :  parity 0, data 19,
50 Lost :  data 8, data 4,
51 Lost :  data 15, data 26,
52 Lost :  parity 0, data 1,
53 Lost :  data 14, data 7,
54 Lost :  data 7, data 1,
55 Lost :  data 13, data 24,
56 Lost :  data 2, data 5,
57 Lost :  data 5, data 12,
58 Lost :  data 20, data 6,
59 Lost :  data 0, parity 0,
60 Lost :  data 17, data 5,
61 Lost :  data 13, data 20,
62 Lost :  data 8, data 7,
63 Lost :  data 8, data 25,
64 Lost :  data 12, data 4,
65 Lost :  data 13, data 23,
66 Lost :  data 19, data 5,
67 Lost :  data 2, data 4,
68 Lost :  data 4, data 16,
69 Lost :  data 22, data 3,
70 Lost :  data 22, data 21,
71 Lost :  data 18, data 8,
72 Lost :  data 0, data 20,
73 Lost :  data 21, data 14,
74 Lost :  data 7, data 3,
75 Lost :  data 0, data 3,
76 Lost :  parity 1, data 17,
77 Lost :  data 22, data 25,
78 Lost :  data 4, data 16,
79 Lost :  data 23, parity 0,
80 Lost :  data 9, data 19,
81 Lost :  parity 0, data 10,
82 Lost :  data 7, data 11,
83 Lost :  data 4, data 13,
84 Lost :  data 17, data 12,
85 Lost :  data 4, data 12,
86 Lost :  data 6, data 12,
87 Lost :  data 23, data 13,
88 Lost :  data 2, data 0,
89 Lost :  data 15, data 0,
90 Lost :  data 26, data 16,
91 Lost :  data 12, data 1,
92 Lost :  data 11, data 16,
93 Lost :  data 8, data 20,
94 Lost :  data 25, data 24,
95 Lost :  data 25, data 15,
96 Lost :  data 8, data 15,
97 Lost :  data 7, data 0,
98 Lost :  data 1, data 20,
99 Lost :  data 20, data 24,
 !!! Decode cost 100435 us, init 0 us, total 100435 us, size = 105062400, speed = 997.613506 MB/s


 *********  End zerasure **********

Using 256-bit vectorization


 ********* Start zerasure *********

Detecting Linux L2 Cache size...
Autoselect packetsize 8192
ZRaid6 K = 28, packetsize = 8192
Malloc... 2d 28 x 8
size is 105054208 Byte, 458 loops
Malloc... 2d 2 x 3751936
 !!! Encode cost 12834 us, init 0 us, total 12834 us, size = 105054208, speed = 7806.412654 MB/s
Malloc... 2d 28 x 3751936
Malloc... 2d 28 x 8
0 Lost :  data 9, data 20,
1 Lost :  data 3, data 26,
2 Lost :  data 13, data 26,
3 Lost :  data 16, data 26,
4 Lost :  data 12, parity 0,
5 Lost :  parity 0, data 17,
6 Lost :  data 11, data 4,
7 Lost :  data 11, data 13,
8 Lost :  data 22, data 24,
9 Lost :  data 25, data 0,
10 Lost :  data 16, data 18,
11 Lost :  data 14, data 12,
12 Lost :  data 1, data 8,
13 Lost :  parity 1, data 19,
14 Lost :  data 12, data 19,
15 Lost :  data 16, data 15,
16 Lost :  data 0, data 15,
17 Lost :  data 1, data 20,
18 Lost :  data 9, data 6,
19 Lost :  data 18, data 27,
20 Lost :  data 18, data 14,
21 Lost :  data 1, data 27,
22 Lost :  data 20, data 5,
23 Lost :  data 1, parity 1,
24 Lost :  parity 1, data 1,
25 Lost :  data 1, data 27,
26 Lost :  data 1, data 27,
27 Lost :  parity 0, data 24,
28 Lost :  data 6, data 5,
29 Lost :  data 5, data 11,
30 Lost :  data 14, data 16,
31 Lost :  data 14, data 5,
32 Lost :  data 14, data 5,
33 Lost :  parity 0, data 5,
34 Lost :  data 23, data 0,
35 Lost :  data 13, data 15,
36 Lost :  parity 0, data 10,
37 Lost :  data 23, data 27,
38 Lost :  data 12, data 18,
39 Lost :  data 7, data 18,
40 Lost :  data 8, data 13,
41 Lost :  data 8, data 16,
42 Lost :  data 22, data 6,
43 Lost :  data 17, data 19,
44 Lost :  data 10, data 7,
45 Lost :  data 10, data 7,
46 Lost :  data 11, data 7,
47 Lost :  data 14, data 22,
48 Lost :  data 8, data 0,
49 Lost :  data 25, data 14,
50 Lost :  data 23, data 27,
51 Lost :  data 12, data 17,
52 Lost :  data 17, data 18,
53 Lost :  data 26, data 20,
54 Lost :  data 6, data 12,
55 Lost :  data 12, data 8,
56 Lost :  data 3, data 14,
57 Lost :  data 10, data 9,
58 Lost :  data 9, data 24,
59 Lost :  data 12, data 15,
60 Lost :  data 18, data 2,
61 Lost :  data 2, parity 1,
62 Lost :  data 8, data 19,
63 Lost :  data 23, data 2,
64 Lost :  data 23, data 11,
65 Lost :  data 20, data 11,
66 Lost :  data 20, data 22,
67 Lost :  data 15, data 22,
68 Lost :  data 21, parity 0,
69 Lost :  data 21, data 7,
70 Lost :  data 15, data 0,
71 Lost :  data 16, data 26,
72 Lost :  data 4, data 12,
73 Lost :  data 20, data 22,
74 Lost :  data 20, data 27,
75 Lost :  data 24, parity 0,
76 Lost :  data 12, data 27,
77 Lost :  data 12, data 15,
78 Lost :  data 23, data 16,
79 Lost :  data 5, data 16,
80 Lost :  data 6, data 16,
81 Lost :  data 19, data 4,
82 Lost :  data 14, data 16,
83 Lost :  data 23, data 2,
84 Lost :  data 18, data 23,
85 Lost :  data 19, data 25,
86 Lost :  data 3, data 22,
87 Lost :  data 22, data 25,
88 Lost :  data 19, data 20,
89 Lost :  data 18, data 10,
90 Lost :  data 18, data 5,
91 Lost :  data 24, data 3,
92 Lost :  data 12, data 3,
93 Lost :  data 12, data 2,
94 Lost :  data 6, data 24,
95 Lost :  data 6, data 26,
96 Lost :  data 23, data 16,
97 Lost :  data 8, data 1,
98 Lost :  data 3, data 26,
99 Lost :  data 21, parity 1,
 !!! Decode cost 98503 us, init 0 us, total 98503 us, size = 105054208, speed = 1017.101002 MB/s


 *********  End zerasure **********

Using 256-bit vectorization


 ********* Start zerasure *********

Detecting Linux L2 Cache size...
Autoselect packetsize 8192
ZRaid6 K = 29, packetsize = 8192
Malloc... 2d 29 x 8
size is 105005056 Byte, 442 loops
Malloc... 2d 2 x 3620864
 !!! Encode cost 12912 us, init 0 us, total 12912 us, size = 105005056, speed = 7755.624613 MB/s
Malloc... 2d 29 x 3620864
Malloc... 2d 29 x 8
0 Lost :  data 0, data 5,
1 Lost :  data 19, data 5,
2 Lost :  data 25, data 19,
3 Lost :  data 13, data 19,
4 Lost :  data 19, data 24,
5 Lost :  data 19, parity 0,
6 Lost :  data 19, data 5,
7 Lost :  data 19, data 2,
8 Lost :  data 1, data 2,
9 Lost :  data 9, data 0,
10 Lost :  data 9, data 0,
11 Lost :  data 9, data 0,
12 Lost :  data 9, data 4,
13 Lost :  data 9, data 14,
14 Lost :  data 9, data 3,
15 Lost :  data 9, data 7,
16 Lost :  data 24, data 6,
17 Lost :  data 27, data 0,
18 Lost :  data 25, data 6,
19 Lost :  data 25, parity 0,
20 Lost :  data 5, data 8,
21 Lost :  data 15, data 3,
22 Lost :  data 20, parity 0,
23 Lost :  data 9, data 11,
24 Lost :  data 7, data 11,
25 Lost :  data 7, data 11,
26 Lost :  data 28, data 17,
27 Lost :  data 3, data 5,
28 Lost :  data 3, data 12,
29 Lost :  data 9, data 21,
30 Lost :  data 14, data 19,
31 Lost :  data 0, data 19,
32 Lost :  data 16, data 25,
33 Lost :  data 16, data 2,
34 Lost :  data 20, data 2,
35 Lost :  data 20, data 6,
36 Lost :  data 15, data 3,
37 Lost :  data 26, data 2,
38 Lost :  data 23, parity 0,
39 Lost :  data 9, parity 0,
40 Lost :  data 8, data 28,
41 Lost :  data 23, data 10,
42 Lost :  data 21, data 8,
43 Lost :  parity 0, data 14,
44 Lost :  data 12, data 9,
45 Lost :  parity 1, data 6,
46 Lost :  data 12, data 16,
47 Lost :  data 2, data 9,
48 Lost :  data 27, data 6,
49 Lost :  data 17, data 20,
50 Lost :  parity 0, data 17,
51 Lost :  data 22, data 5,
52 Lost :  data 9, data 11,
53 Lost :  data 2, parity 1,
54 Lost :  data 15, data 25,
55 Lost :  data 27, data 1,
56 Lost :  data 14, data 6,
57 Lost :  data 4, data 6,
58 Lost :  data 13, data 25,
59 Lost :  data 1, data 14,
60 Lost :  data 0, data 3,
61 Lost :  data 20, data 11,
62 Lost :  data 19, data 25,
63 Lost :  data 13, data 22,
64 Lost :  data 25, data 1,
65 Lost :  data 28, data 3,
66 Lost :  data 12, data 3,
67 Lost :  data 28, parity 0,
68 Lost :  data 17, data 18,
69 Lost :  data 17, data 28,
70 Lost :  data 27, data 10,
71 Lost :  data 27, data 20,
72 Lost :  data 27, data 11,
73 Lost :  data 26, data 23,
74 Lost :  data 1, data 4,
75 Lost :  data 26, data 21,
76 Lost :  data 18, data 11,
77 Lost :  parity 1, data 6,
78 Lost :  data 26, parity 1,
79 Lost :  parity 0, data 1,
80 Lost :  data 10, data 4,
81 Lost :  data 20, data 24,
82 Lost :  data 10, data 15,
83 Lost :  parity 1, data 5,
84 Lost :  data 5, data 2,
85 Lost :  data 20, data 2,
86 Lost :  data 1, data 9,
87 Lost :  data 5, data 4,
88 Lost :  data 15, data 1,
89 Lost :  data 20, data 0,
90 Lost :  data 22, data 0,
91 Lost :  data 7, data 10,
92 Lost :  data 3, data 10,
93 Lost :  data 6, data 10,
94 Lost :  data 0, data 3,
95 Lost :  data 18, data 22,
96 Lost :  data 17, data 2,
97 Lost :  data 1, data 27,
98 Lost :  data 1, data 3,
99 Lost :  data 1, data 3,
 !!! Decode cost 98179 us, init 0 us, total 98179 us, size = 105005056, speed = 1019.980087 MB/s


 *********  End zerasure **********

Using 256-bit vectorization


 ********* Start zerasure *********

Detecting Linux L2 Cache size...
Autoselect packetsize 4096
ZRaid6 K = 30, packetsize = 4096
Malloc... 2d 30 x 8
size is 104939520 Byte, 854 loops
Malloc... 2d 2 x 3497984
 !!! Encode cost 13418 us, init 0 us, total 13418 us, size = 104939520, speed = 7458.497913 MB/s
Malloc... 2d 30 x 3497984
Malloc... 2d 30 x 8
0 Lost :  data 23, data 1,
1 Lost :  data 20, data 19,
2 Lost :  data 12, data 19,
3 Lost :  data 13, data 4,
4 Lost :  data 13, data 3,
5 Lost :  data 8, data 25,
6 Lost :  data 16, parity 1,
7 Lost :  data 11, data 18,
8 Lost :  data 11, data 5,
9 Lost :  data 2, data 9,
10 Lost :  data 24, data 26,
11 Lost :  data 26, data 12,
12 Lost :  data 7, data 5,
13 Lost :  data 6, data 13,
14 Lost :  data 6, data 19,
15 Lost :  data 9, data 22,
16 Lost :  data 17, data 21,
17 Lost :  data 5, data 11,
18 Lost :  data 2, data 12,
19 Lost :  data 2, data 12,
20 Lost :  data 18, data 10,
21 Lost :  data 7, data 28,
22 Lost :  data 12, data 27,
23 Lost :  data 0, data 28,
24 Lost :  data 9, data 0,
25 Lost :  data 26, data 14,
26 Lost :  data 10, data 3,
27 Lost :  data 7, data 14,
28 Lost :  data 7, data 19,
29 Lost :  data 24, data 10,
30 Lost :  data 18, data 19,
31 Lost :  data 15, data 19,
32 Lost :  data 15, data 21,
33 Lost :  data 23, data 21,
34 Lost :  data 16, data 21,
35 Lost :  parity 0, data 0,
36 Lost :  data 14, data 23,
37 Lost :  data 14, data 23,
38 Lost :  data 16, data 10,
39 Lost :  data 21, data 25,
40 Lost :  data 20, data 29,
41 Lost :  data 21, data 10,
42 Lost :  data 7, data 16,
43 Lost :  data 7, data 4,
44 Lost :  parity 1, data 15,
45 Lost :  data 29, data 5,
46 Lost :  parity 1, data 21,
47 Lost :  data 8, data 14,
48 Lost :  data 4, data 15,
49 Lost :  data 12, data 24,
50 Lost :  data 12, data 24,
51 Lost :  data 15, data 18,
52 Lost :  data 9, data 6,
53 Lost :  data 1, data 0,
54 Lost :  data 11, data 19,
55 Lost :  data 21, data 18,
56 Lost :  data 21, data 7,
57 Lost :  data 13, data 7,
58 Lost :  data 9, data 3,
59 Lost :  data 24, data 18,
60 Lost :  data 6, data 19,
61 Lost :  data 0, data 2,
62 Lost :  data 5, data 10,
63 Lost :  data 6, data 10,
64 Lost :  parity 0, data 7,
65 Lost :  data 5, data 13,
66 Lost :  data 13, data 1,
67 Lost :  data 26, data 0,
68 Lost :  data 10, data 0,
69 Lost :  data 10, data 9,
70 Lost :  data 1, data 26,
71 Lost :  data 15, data 5,
72 Lost :  data 27, data 5,
73 Lost :  data 25, data 18,
74 Lost :  data 22, data 26,
75 Lost :  data 18, data 6,
76 Lost :  data 14, data 6,
77 Lost :  data 14, parity 0,
78 Lost :  data 26, data 10,
79 Lost :  data 23, data 22,
80 Lost :  data 25, data 22,
81 Lost :  data 14, data 8,
82 Lost :  data 14, data 3,
83 Lost :  data 17, data 28,
84 Lost :  data 6, data 28,
85 Lost :  data 22, data 28,
86 Lost :  data 16, data 26,
87 Lost :  data 16, data 19,
88 Lost :  data 16, data 4,
89 Lost :  data 5, data 8,
90 Lost :  data 22, parity 0,
91 Lost :  data 1, data 16,
92 Lost :  data 9, data 6,
93 Lost :  data 7, data 18,
94 Lost :  data 20, data 7,
95 Lost :  data 25, data 0,
96 Lost :  data 27, data 5,
97 Lost :  data 16, data 24,
98 Lost :  data 20, data 27,
99 Lost :  data 16, data 19,
 !!! Decode cost 103109 us, init 0 us, total 103109 us, size = 104939520, speed = 970.605136 MB/s


 *********  End zerasure **********

